Nov 08 09:20:59 ol76a.fake.net kernel: device enp0s3 entered promiscuous mode
Nov 08 09:21:09 ol76a.fake.net kernel: nfsd_dispatch: vers 4 proc 0
Nov 08 09:21:09 ol76a.fake.net kernel: nfsd_dispatch: vers 4 proc 1
Nov 08 09:21:09 ol76a.fake.net kernel: nfsv4 compound op #1/1: 42 (OP_EXCHANGE_ID)
Nov 08 09:21:09 ol76a.fake.net kernel: nfsd4_exchange_id rqstp=ffff9691992ca000 exid=ffff9691996a40a0 clname.len=28 clname.data=ffff969199798068 ip_addr=10.162.81.43 flags 103, spa_how 0
Nov 08 09:21:09 ol76a.fake.net kernel: renewing client (clientid 5be4408b/ebc920f2)
Nov 08 09:21:09 ol76a.fake.net kernel: nfsd4_exchange_id seqid 0 flags 20001
Nov 08 09:21:09 ol76a.fake.net kernel: nfsv4 compound op ffff9691996a4080 opcnt 1 #1: 42: status 0
Nov 08 09:21:09 ol76a.fake.net kernel: nfsv4 compound returned 0
Nov 08 09:21:09 ol76a.fake.net kernel: nfsd_dispatch: vers 4 proc 1
Nov 08 09:21:09 ol76a.fake.net kernel: nfsv4 compound op #1/1: 42 (OP_EXCHANGE_ID)
Nov 08 09:21:09 ol76a.fake.net kernel: nfsd4_exchange_id rqstp=ffff9691992ca000 exid=ffff9691996a40a0 clname.len=28 clname.data=ffff969199798068 ip_addr=10.162.81.43 flags 103, spa_how 0
Nov 08 09:21:09 ol76a.fake.net kernel: renewing client (clientid 5be4408b/ebc920f3)
Nov 08 09:21:09 ol76a.fake.net kernel: nfsd4_exchange_id seqid 0 flags 20001
Nov 08 09:21:09 ol76a.fake.net kernel: nfsv4 compound op ffff9691996a4080 opcnt 1 #1: 42: status 0
Nov 08 09:21:09 ol76a.fake.net kernel: nfsv4 compound returned 0
Nov 08 09:21:09 ol76a.fake.net kernel: nfsd_dispatch: vers 4 proc 1
Nov 08 09:21:09 ol76a.fake.net kernel: nfsv4 compound op #1/1: 43 (OP_CREATE_SESSION)
Nov 08 09:21:09 ol76a.fake.net kernel: renewing client (clientid 5be4408b/ebc920f3)
Nov 08 09:21:09 ol76a.fake.net kernel: check_slot_seqid enter. seqid 1 slot_seqid 0
Nov 08 09:21:09 ol76a.fake.net kernel: NFSD: move_to_confirm nfs4_client ffff9691986d0000
Nov 08 09:21:09 ol76a.fake.net kernel: renewing client (clientid 5be4408b/ebc920f3)
Nov 08 09:21:09 ol76a.fake.net kernel: renewing client (clientid 5be4408b/ebc920f3)
Nov 08 09:21:09 ol76a.fake.net kernel: nfsv4 compound op ffff9691996a4080 opcnt 1 #1: 43: status 0
Nov 08 09:21:09 ol76a.fake.net kernel: nfsv4 compound returned 0
Nov 08 09:21:09 ol76a.fake.net kernel: nfsd_dispatch: vers 4 proc 1
Nov 08 09:21:09 ol76a.fake.net kernel: nfsv4 compound op #1/2: 53 (OP_SEQUENCE)
Nov 08 09:21:09 ol76a.fake.net kernel: __find_in_sessionid_hashtbl: 1541685387:3955826931:5:0
Nov 08 09:21:09 ol76a.fake.net kernel: nfsd4_sequence: slotid 0
Nov 08 09:21:09 ol76a.fake.net kernel: check_slot_seqid enter. seqid 1 slot_seqid 0
Nov 08 09:21:09 ol76a.fake.net kernel: nfsv4 compound op ffff9691996a4080 opcnt 2 #1: 53: status 0
Nov 08 09:21:09 ol76a.fake.net kernel: nfsv4 compound op #2/2: 58 (OP_RECLAIM_COMPLETE)
Nov 08 09:21:09 ol76a.fake.net kernel: nfsd4_umh_cltrack_upcall: cmd: create
Nov 08 09:21:09 ol76a.fake.net kernel: nfsd4_umh_cltrack_upcall: arg: 4c696e7578204e465376342e31206f6c3736662e66616b652e6e6574
Nov 08 09:21:09 ol76a.fake.net kernel: nfsd4_umh_cltrack_upcall: env0: NFSDCLTRACK_CLIENT_HAS_SESSION=Y
Nov 08 09:21:09 ol76a.fake.net kernel: nfsd4_umh_cltrack_upcall: env1: NFSDCLTRACK_GRACE_START=1541685387
Nov 08 09:21:09 ol76a.fake.net kernel: nfsd4_umh_cltrack_upcall: /sbin/nfsdcltrack return value: 0
Nov 08 09:21:09 ol76a.fake.net kernel: nfsv4 compound op ffff9691996a4080 opcnt 2 #2: 58: status 0
Nov 08 09:21:09 ol76a.fake.net kernel: nfsv4 compound returned 0
Nov 08 09:21:09 ol76a.fake.net kernel: --> nfsd4_store_cache_entry slot ffff969181510000
Nov 08 09:21:09 ol76a.fake.net kernel: renewing client (clientid 5be4408b/ebc920f3)
Nov 08 09:21:09 ol76a.fake.net kernel: nfsd_dispatch: vers 4 proc 1
Nov 08 09:21:09 ol76a.fake.net kernel: nfsv4 compound op #1/3: 53 (OP_SEQUENCE)
Nov 08 09:21:09 ol76a.fake.net kernel: __find_in_sessionid_hashtbl: 1541685387:3955826931:5:0
Nov 08 09:21:09 ol76a.fake.net kernel: nfsd4_sequence: slotid 0
Nov 08 09:21:09 ol76a.fake.net kernel: check_slot_seqid enter. seqid 2 slot_seqid 1
Nov 08 09:21:09 ol76a.fake.net kernel: nfsv4 compound op ffff9691996a4080 opcnt 3 #1: 53: status 0
Nov 08 09:21:09 ol76a.fake.net kernel: nfsv4 compound op #2/3: 24 (OP_PUTROOTFH)
Nov 08 09:21:09 ol76a.fake.net kernel: nfsd: fh_compose(exp fc:00/128 /, ino=128)
Nov 08 09:21:09 ol76a.fake.net kernel: nfsv4 compound op ffff9691996a4080 opcnt 3 #2: 24: status 0
Nov 08 09:21:09 ol76a.fake.net kernel: nfsv4 compound op #3/3: 52 (OP_SECINFO_NO_NAME)
Nov 08 09:21:09 ol76a.fake.net kernel: nfsv4 compound op ffff9691996a4080 opcnt 3 #3: 52: status 0
Nov 08 09:21:09 ol76a.fake.net kernel: nfsv4 compound returned 0
Nov 08 09:21:09 ol76a.fake.net kernel: --> nfsd4_store_cache_entry slot ffff969181510000
Nov 08 09:21:09 ol76a.fake.net kernel: renewing client (clientid 5be4408b/ebc920f3)
Nov 08 09:21:09 ol76a.fake.net kernel: nfsd_dispatch: vers 4 proc 1
Nov 08 09:21:09 ol76a.fake.net kernel: nfsv4 compound op #1/4: 53 (OP_SEQUENCE)
Nov 08 09:21:09 ol76a.fake.net kernel: __find_in_sessionid_hashtbl: 1541685387:3955826931:5:0
Nov 08 09:21:09 ol76a.fake.net kernel: nfsd4_sequence: slotid 0
Nov 08 09:21:09 ol76a.fake.net kernel: check_slot_seqid enter. seqid 3 slot_seqid 2
Nov 08 09:21:09 ol76a.fake.net kernel: nfsv4 compound op ffff9691996a4080 opcnt 4 #1: 53: status 0
Nov 08 09:21:09 ol76a.fake.net kernel: nfsv4 compound op #2/4: 24 (OP_PUTROOTFH)
Nov 08 09:21:09 ol76a.fake.net kernel: nfsd: fh_compose(exp fc:00/128 /, ino=128)
Nov 08 09:21:09 ol76a.fake.net kernel: nfsv4 compound op ffff9691996a4080 opcnt 4 #2: 24: status 0
Nov 08 09:21:09 ol76a.fake.net kernel: nfsv4 compound op #3/4: 10 (OP_GETFH)
Nov 08 09:21:09 ol76a.fake.net kernel: nfsv4 compound op ffff9691996a4080 opcnt 4 #3: 10: status 0
Nov 08 09:21:09 ol76a.fake.net kernel: nfsv4 compound op #4/4: 9 (OP_GETATTR)
Nov 08 09:21:09 ol76a.fake.net kernel: nfsd: fh_verify(8: 00010001 00000000 00000000 00000000 00000000 00000000)
Nov 08 09:21:09 ol76a.fake.net kernel: nfsv4 compound op ffff9691996a4080 opcnt 4 #4: 9: status 0
Nov 08 09:21:09 ol76a.fake.net kernel: nfsv4 compound returned 0
Nov 08 09:21:09 ol76a.fake.net kernel: --> nfsd4_store_cache_entry slot ffff969181510000
Nov 08 09:21:09 ol76a.fake.net kernel: renewing client (clientid 5be4408b/ebc920f3)
Nov 08 09:21:09 ol76a.fake.net kernel: nfsd_dispatch: vers 4 proc 1
Nov 08 09:21:09 ol76a.fake.net kernel: nfsv4 compound op #1/3: 53 (OP_SEQUENCE)
Nov 08 09:21:09 ol76a.fake.net kernel: __find_in_sessionid_hashtbl: 1541685387:3955826931:5:0
Nov 08 09:21:09 ol76a.fake.net kernel: nfsd4_sequence: slotid 0
Nov 08 09:21:09 ol76a.fake.net kernel: check_slot_seqid enter. seqid 4 slot_seqid 3
Nov 08 09:21:09 ol76a.fake.net kernel: nfsv4 compound op ffff9691996a4080 opcnt 3 #1: 53: status 0
Nov 08 09:21:09 ol76a.fake.net kernel: nfsv4 compound op #2/3: 22 (OP_PUTFH)
Nov 08 09:21:09 ol76a.fake.net kernel: nfsd: fh_verify(8: 00010001 00000000 00000000 00000000 00000000 00000000)
Nov 08 09:21:09 ol76a.fake.net kernel: nfsv4 compound op ffff9691996a4080 opcnt 3 #2: 22: status 0
Nov 08 09:21:09 ol76a.fake.net kernel: nfsv4 compound op #3/3: 9 (OP_GETATTR)
Nov 08 09:21:09 ol76a.fake.net kernel: nfsd: fh_verify(8: 00010001 00000000 00000000 00000000 00000000 00000000)
Nov 08 09:21:09 ol76a.fake.net kernel: nfsv4 compound op ffff9691996a4080 opcnt 3 #3: 9: status 0
Nov 08 09:21:09 ol76a.fake.net kernel: nfsv4 compound returned 0
Nov 08 09:21:09 ol76a.fake.net kernel: --> nfsd4_store_cache_entry slot ffff969181510000
Nov 08 09:21:09 ol76a.fake.net kernel: renewing client (clientid 5be4408b/ebc920f3)
Nov 08 09:21:09 ol76a.fake.net kernel: nfsd_dispatch: vers 4 proc 1
Nov 08 09:21:09 ol76a.fake.net kernel: nfsv4 compound op #1/3: 53 (OP_SEQUENCE)
Nov 08 09:21:09 ol76a.fake.net kernel: __find_in_sessionid_hashtbl: 1541685387:3955826931:5:0
Nov 08 09:21:09 ol76a.fake.net kernel: nfsd4_sequence: slotid 0
Nov 08 09:21:09 ol76a.fake.net kernel: check_slot_seqid enter. seqid 5 slot_seqid 4
Nov 08 09:21:09 ol76a.fake.net kernel: nfsv4 compound op ffff9691996a4080 opcnt 3 #1: 53: status 0
Nov 08 09:21:09 ol76a.fake.net kernel: nfsv4 compound op #2/3: 22 (OP_PUTFH)
Nov 08 09:21:09 ol76a.fake.net kernel: nfsd: fh_verify(8: 00010001 00000000 00000000 00000000 00000000 00000000)
Nov 08 09:21:09 ol76a.fake.net kernel: nfsv4 compound op ffff9691996a4080 opcnt 3 #2: 22: status 0
Nov 08 09:21:09 ol76a.fake.net kernel: nfsv4 compound op #3/3: 9 (OP_GETATTR)
Nov 08 09:21:09 ol76a.fake.net kernel: nfsd: fh_verify(8: 00010001 00000000 00000000 00000000 00000000 00000000)
Nov 08 09:21:09 ol76a.fake.net kernel: nfsv4 compound op ffff9691996a4080 opcnt 3 #3: 9: status 0
Nov 08 09:21:09 ol76a.fake.net kernel: nfsv4 compound returned 0
Nov 08 09:21:09 ol76a.fake.net kernel: --> nfsd4_store_cache_entry slot ffff969181510000
Nov 08 09:21:09 ol76a.fake.net kernel: renewing client (clientid 5be4408b/ebc920f3)
Nov 08 09:21:09 ol76a.fake.net kernel: nfsd_dispatch: vers 4 proc 1
Nov 08 09:21:09 ol76a.fake.net kernel: nfsv4 compound op #1/3: 53 (OP_SEQUENCE)
Nov 08 09:21:09 ol76a.fake.net kernel: __find_in_sessionid_hashtbl: 1541685387:3955826931:5:0
Nov 08 09:21:09 ol76a.fake.net kernel: nfsd4_sequence: slotid 0
Nov 08 09:21:09 ol76a.fake.net kernel: check_slot_seqid enter. seqid 6 slot_seqid 5
Nov 08 09:21:09 ol76a.fake.net kernel: nfsv4 compound op ffff9691996a4080 opcnt 3 #1: 53: status 0
Nov 08 09:21:09 ol76a.fake.net kernel: nfsv4 compound op #2/3: 22 (OP_PUTFH)
Nov 08 09:21:09 ol76a.fake.net kernel: nfsd: fh_verify(8: 00010001 00000000 00000000 00000000 00000000 00000000)
Nov 08 09:21:09 ol76a.fake.net kernel: nfsv4 compound op ffff9691996a4080 opcnt 3 #2: 22: status 0
Nov 08 09:21:09 ol76a.fake.net kernel: nfsv4 compound op #3/3: 9 (OP_GETATTR)
Nov 08 09:21:09 ol76a.fake.net kernel: nfsd: fh_verify(8: 00010001 00000000 00000000 00000000 00000000 00000000)
Nov 08 09:21:09 ol76a.fake.net kernel: nfsv4 compound op ffff9691996a4080 opcnt 3 #3: 9: status 0
Nov 08 09:21:09 ol76a.fake.net kernel: nfsv4 compound returned 0
Nov 08 09:21:09 ol76a.fake.net kernel: --> nfsd4_store_cache_entry slot ffff969181510000
Nov 08 09:21:09 ol76a.fake.net kernel: renewing client (clientid 5be4408b/ebc920f3)
Nov 08 09:21:09 ol76a.fake.net kernel: nfsd_dispatch: vers 4 proc 1
Nov 08 09:21:09 ol76a.fake.net kernel: nfsv4 compound op #1/3: 53 (OP_SEQUENCE)
Nov 08 09:21:09 ol76a.fake.net kernel: __find_in_sessionid_hashtbl: 1541685387:3955826931:5:0
Nov 08 09:21:09 ol76a.fake.net kernel: nfsd4_sequence: slotid 0
Nov 08 09:21:09 ol76a.fake.net kernel: check_slot_seqid enter. seqid 7 slot_seqid 6
Nov 08 09:21:09 ol76a.fake.net kernel: nfsv4 compound op ffff9691996a4080 opcnt 3 #1: 53: status 0
Nov 08 09:21:09 ol76a.fake.net kernel: nfsv4 compound op #2/3: 22 (OP_PUTFH)
Nov 08 09:21:09 ol76a.fake.net kernel: nfsd: fh_verify(8: 00010001 00000000 00000000 00000000 00000000 00000000)
Nov 08 09:21:09 ol76a.fake.net kernel: nfsv4 compound op ffff9691996a4080 opcnt 3 #2: 22: status 0
Nov 08 09:21:09 ol76a.fake.net kernel: nfsv4 compound op #3/3: 9 (OP_GETATTR)
Nov 08 09:21:09 ol76a.fake.net kernel: nfsd: fh_verify(8: 00010001 00000000 00000000 00000000 00000000 00000000)
Nov 08 09:21:09 ol76a.fake.net kernel: nfsv4 compound op ffff9691996a4080 opcnt 3 #3: 9: status 0
Nov 08 09:21:09 ol76a.fake.net kernel: nfsv4 compound returned 0
Nov 08 09:21:09 ol76a.fake.net kernel: --> nfsd4_store_cache_entry slot ffff969181510000
Nov 08 09:21:09 ol76a.fake.net kernel: renewing client (clientid 5be4408b/ebc920f3)
Nov 08 09:21:09 ol76a.fake.net kernel: nfsd_dispatch: vers 4 proc 1
Nov 08 09:21:09 ol76a.fake.net kernel: nfsv4 compound op #1/3: 53 (OP_SEQUENCE)
Nov 08 09:21:09 ol76a.fake.net kernel: __find_in_sessionid_hashtbl: 1541685387:3955826931:5:0
Nov 08 09:21:09 ol76a.fake.net kernel: nfsd4_sequence: slotid 0
Nov 08 09:21:09 ol76a.fake.net kernel: check_slot_seqid enter. seqid 8 slot_seqid 7
Nov 08 09:21:09 ol76a.fake.net kernel: nfsv4 compound op ffff9691996a4080 opcnt 3 #1: 53: status 0
Nov 08 09:21:09 ol76a.fake.net kernel: nfsv4 compound op #2/3: 22 (OP_PUTFH)
Nov 08 09:21:09 ol76a.fake.net kernel: nfsd: fh_verify(8: 00010001 00000000 00000000 00000000 00000000 00000000)
Nov 08 09:21:09 ol76a.fake.net kernel: nfsv4 compound op ffff9691996a4080 opcnt 3 #2: 22: status 0
Nov 08 09:21:09 ol76a.fake.net kernel: nfsv4 compound op #3/3: 9 (OP_GETATTR)
Nov 08 09:21:09 ol76a.fake.net kernel: nfsd: fh_verify(8: 00010001 00000000 00000000 00000000 00000000 00000000)
Nov 08 09:21:09 ol76a.fake.net kernel: nfsv4 compound op ffff9691996a4080 opcnt 3 #3: 9: status 0
Nov 08 09:21:09 ol76a.fake.net kernel: nfsv4 compound returned 0
Nov 08 09:21:09 ol76a.fake.net kernel: --> nfsd4_store_cache_entry slot ffff969181510000
Nov 08 09:21:09 ol76a.fake.net kernel: renewing client (clientid 5be4408b/ebc920f3)
Nov 08 09:21:09 ol76a.fake.net kernel: nfsd_dispatch: vers 4 proc 1
Nov 08 09:21:09 ol76a.fake.net kernel: nfsv4 compound op #1/3: 53 (OP_SEQUENCE)
Nov 08 09:21:09 ol76a.fake.net kernel: __find_in_sessionid_hashtbl: 1541685387:3955826931:5:0
Nov 08 09:21:09 ol76a.fake.net kernel: nfsd4_sequence: slotid 0
Nov 08 09:21:09 ol76a.fake.net kernel: check_slot_seqid enter. seqid 9 slot_seqid 8
Nov 08 09:21:09 ol76a.fake.net kernel: nfsv4 compound op ffff9691996a4080 opcnt 3 #1: 53: status 0
Nov 08 09:21:09 ol76a.fake.net kernel: nfsv4 compound op #2/3: 22 (OP_PUTFH)
Nov 08 09:21:09 ol76a.fake.net kernel: nfsd: fh_verify(8: 00010001 00000000 00000000 00000000 00000000 00000000)
Nov 08 09:21:09 ol76a.fake.net kernel: nfsv4 compound op ffff9691996a4080 opcnt 3 #2: 22: status 0
Nov 08 09:21:09 ol76a.fake.net kernel: nfsv4 compound op #3/3: 9 (OP_GETATTR)
Nov 08 09:21:09 ol76a.fake.net kernel: nfsd: fh_verify(8: 00010001 00000000 00000000 00000000 00000000 00000000)
Nov 08 09:21:09 ol76a.fake.net kernel: nfsv4 compound op ffff9691996a4080 opcnt 3 #3: 9: status 0
Nov 08 09:21:09 ol76a.fake.net kernel: nfsv4 compound returned 0
Nov 08 09:21:09 ol76a.fake.net kernel: --> nfsd4_store_cache_entry slot ffff969181510000
Nov 08 09:21:09 ol76a.fake.net kernel: renewing client (clientid 5be4408b/ebc920f3)
Nov 08 09:21:09 ol76a.fake.net kernel: nfsd_dispatch: vers 4 proc 1
Nov 08 09:21:09 ol76a.fake.net kernel: nfsv4 compound op #1/3: 53 (OP_SEQUENCE)
Nov 08 09:21:09 ol76a.fake.net kernel: __find_in_sessionid_hashtbl: 1541685387:3955826931:5:0
Nov 08 09:21:09 ol76a.fake.net kernel: nfsd4_sequence: slotid 0
Nov 08 09:21:09 ol76a.fake.net kernel: check_slot_seqid enter. seqid 10 slot_seqid 9
Nov 08 09:21:09 ol76a.fake.net kernel: nfsv4 compound op ffff9691996a4080 opcnt 3 #1: 53: status 0
Nov 08 09:21:09 ol76a.fake.net kernel: nfsv4 compound op #2/3: 22 (OP_PUTFH)
Nov 08 09:21:09 ol76a.fake.net kernel: nfsd: fh_verify(8: 00010001 00000000 00000000 00000000 00000000 00000000)
Nov 08 09:21:09 ol76a.fake.net kernel: nfsv4 compound op ffff9691996a4080 opcnt 3 #2: 22: status 0
Nov 08 09:21:09 ol76a.fake.net kernel: nfsv4 compound op #3/3: 9 (OP_GETATTR)
Nov 08 09:21:09 ol76a.fake.net kernel: nfsd: fh_verify(8: 00010001 00000000 00000000 00000000 00000000 00000000)
Nov 08 09:21:09 ol76a.fake.net kernel: nfsv4 compound op ffff9691996a4080 opcnt 3 #3: 9: status 0
Nov 08 09:21:09 ol76a.fake.net kernel: nfsv4 compound returned 0
Nov 08 09:21:09 ol76a.fake.net kernel: --> nfsd4_store_cache_entry slot ffff969181510000
Nov 08 09:21:09 ol76a.fake.net kernel: renewing client (clientid 5be4408b/ebc920f3)
Nov 08 09:21:09 ol76a.fake.net kernel: nfsd_dispatch: vers 4 proc 1
Nov 08 09:21:09 ol76a.fake.net kernel: nfsv4 compound op #1/4: 53 (OP_SEQUENCE)
Nov 08 09:21:09 ol76a.fake.net kernel: __find_in_sessionid_hashtbl: 1541685387:3955826931:5:0
Nov 08 09:21:09 ol76a.fake.net kernel: nfsd4_sequence: slotid 0
Nov 08 09:21:09 ol76a.fake.net kernel: check_slot_seqid enter. seqid 11 slot_seqid 10
Nov 08 09:21:09 ol76a.fake.net kernel: nfsv4 compound op ffff9691996a4080 opcnt 4 #1: 53: status 0
Nov 08 09:21:09 ol76a.fake.net kernel: nfsv4 compound op #2/4: 22 (OP_PUTFH)
Nov 08 09:21:09 ol76a.fake.net kernel: nfsd: fh_verify(8: 00010001 00000000 00000000 00000000 00000000 00000000)
Nov 08 09:21:09 ol76a.fake.net kernel: nfsv4 compound op ffff9691996a4080 opcnt 4 #2: 22: status 0
Nov 08 09:21:09 ol76a.fake.net kernel: nfsv4 compound op #3/4: 3 (OP_ACCESS)
Nov 08 09:21:09 ol76a.fake.net kernel: nfsd: fh_verify(8: 00010001 00000000 00000000 00000000 00000000 00000000)
Nov 08 09:21:09 ol76a.fake.net kernel: nfsv4 compound op ffff9691996a4080 opcnt 4 #3: 3: status 0
Nov 08 09:21:09 ol76a.fake.net kernel: nfsv4 compound op #4/4: 9 (OP_GETATTR)
Nov 08 09:21:09 ol76a.fake.net kernel: nfsd: fh_verify(8: 00010001 00000000 00000000 00000000 00000000 00000000)
Nov 08 09:21:09 ol76a.fake.net kernel: nfsv4 compound op ffff9691996a4080 opcnt 4 #4: 9: status 0
Nov 08 09:21:09 ol76a.fake.net kernel: nfsv4 compound returned 0
Nov 08 09:21:09 ol76a.fake.net kernel: --> nfsd4_store_cache_entry slot ffff969181510000
Nov 08 09:21:09 ol76a.fake.net kernel: renewing client (clientid 5be4408b/ebc920f3)
Nov 08 09:21:09 ol76a.fake.net kernel: nfsd_dispatch: vers 4 proc 1
Nov 08 09:21:09 ol76a.fake.net kernel: nfsv4 compound op #1/5: 53 (OP_SEQUENCE)
Nov 08 09:21:09 ol76a.fake.net kernel: __find_in_sessionid_hashtbl: 1541685387:3955826931:5:0
Nov 08 09:21:09 ol76a.fake.net kernel: nfsd4_sequence: slotid 0
Nov 08 09:21:09 ol76a.fake.net kernel: check_slot_seqid enter. seqid 12 slot_seqid 11
Nov 08 09:21:09 ol76a.fake.net kernel: nfsv4 compound op ffff9691996a4080 opcnt 5 #1: 53: status 0
Nov 08 09:21:09 ol76a.fake.net kernel: nfsv4 compound op #2/5: 22 (OP_PUTFH)
Nov 08 09:21:09 ol76a.fake.net kernel: nfsd: fh_verify(8: 00010001 00000000 00000000 00000000 00000000 00000000)
Nov 08 09:21:09 ol76a.fake.net kernel: nfsv4 compound op ffff9691996a4080 opcnt 5 #2: 22: status 0
Nov 08 09:21:09 ol76a.fake.net kernel: nfsv4 compound op #3/5: 15 (OP_LOOKUP)
Nov 08 09:21:09 ol76a.fake.net kernel: nfsd: fh_verify(8: 00010001 00000000 00000000 00000000 00000000 00000000)
Nov 08 09:21:09 ol76a.fake.net kernel: nfsd: nfsd_lookup(fh 8: 00010001 00000000 00000000 00000000 00000000 00000000, export)
Nov 08 09:21:09 ol76a.fake.net kernel: nfsd: fh_compose(exp fc:00/101923231 /export, ino=101923231)
Nov 08 09:21:09 ol76a.fake.net kernel: nfsv4 compound op ffff9691996a4080 opcnt 5 #3: 15: status 0
Nov 08 09:21:09 ol76a.fake.net kernel: nfsv4 compound op #4/5: 10 (OP_GETFH)
Nov 08 09:21:09 ol76a.fake.net kernel: nfsv4 compound op ffff9691996a4080 opcnt 5 #4: 10: status 0
Nov 08 09:21:09 ol76a.fake.net kernel: nfsv4 compound op #5/5: 9 (OP_GETATTR)
Nov 08 09:21:09 ol76a.fake.net kernel: nfsd: fh_verify(28: 00070001 0613399f 00000000 322291b4 8046d8c2 fb09828f)
Nov 08 09:21:09 ol76a.fake.net kernel: nfsv4 compound op ffff9691996a4080 opcnt 5 #5: 9: status 0
Nov 08 09:21:09 ol76a.fake.net kernel: nfsv4 compound returned 0
Nov 08 09:21:09 ol76a.fake.net kernel: --> nfsd4_store_cache_entry slot ffff969181510000
Nov 08 09:21:09 ol76a.fake.net kernel: renewing client (clientid 5be4408b/ebc920f3)
Nov 08 09:21:09 ol76a.fake.net kernel: nfsd_dispatch: vers 4 proc 1
Nov 08 09:21:09 ol76a.fake.net kernel: nfsv4 compound op #1/5: 53 (OP_SEQUENCE)
Nov 08 09:21:09 ol76a.fake.net kernel: __find_in_sessionid_hashtbl: 1541685387:3955826931:5:0
Nov 08 09:21:09 ol76a.fake.net kernel: nfsd4_sequence: slotid 0
Nov 08 09:21:09 ol76a.fake.net kernel: check_slot_seqid enter. seqid 13 slot_seqid 12
Nov 08 09:21:09 ol76a.fake.net kernel: nfsv4 compound op ffff9691996a4080 opcnt 5 #1: 53: status 0
Nov 08 09:21:09 ol76a.fake.net kernel: nfsv4 compound op #2/5: 22 (OP_PUTFH)
Nov 08 09:21:09 ol76a.fake.net kernel: nfsd: fh_verify(8: 00010001 00000000 00000000 00000000 00000000 00000000)
Nov 08 09:21:09 ol76a.fake.net kernel: nfsv4 compound op ffff9691996a4080 opcnt 5 #2: 22: status 0
Nov 08 09:21:09 ol76a.fake.net kernel: nfsv4 compound op #3/5: 15 (OP_LOOKUP)
Nov 08 09:21:09 ol76a.fake.net kernel: nfsd: fh_verify(8: 00010001 00000000 00000000 00000000 00000000 00000000)
Nov 08 09:21:09 ol76a.fake.net kernel: nfsd: nfsd_lookup(fh 8: 00010001 00000000 00000000 00000000 00000000 00000000, export)
Nov 08 09:21:09 ol76a.fake.net kernel: nfsd: fh_compose(exp fc:00/101923231 /export, ino=101923231)
Nov 08 09:21:09 ol76a.fake.net kernel: nfsv4 compound op ffff9691996a4080 opcnt 5 #3: 15: status 0
Nov 08 09:21:09 ol76a.fake.net kernel: nfsv4 compound op #4/5: 10 (OP_GETFH)
Nov 08 09:21:09 ol76a.fake.net kernel: nfsv4 compound op ffff9691996a4080 opcnt 5 #4: 10: status 0
Nov 08 09:21:09 ol76a.fake.net kernel: nfsv4 compound op #5/5: 9 (OP_GETATTR)
Nov 08 09:21:09 ol76a.fake.net kernel: nfsd: fh_verify(28: 00070001 0613399f 00000000 322291b4 8046d8c2 fb09828f)
Nov 08 09:21:09 ol76a.fake.net kernel: nfsv4 compound op ffff9691996a4080 opcnt 5 #5: 9: status 0
Nov 08 09:21:09 ol76a.fake.net kernel: nfsv4 compound returned 0
Nov 08 09:21:09 ol76a.fake.net kernel: --> nfsd4_store_cache_entry slot ffff969181510000
Nov 08 09:21:09 ol76a.fake.net kernel: renewing client (clientid 5be4408b/ebc920f3)
Nov 08 09:21:09 ol76a.fake.net kernel: nfsd_dispatch: vers 4 proc 1
Nov 08 09:21:09 ol76a.fake.net kernel: nfsv4 compound op #1/3: 53 (OP_SEQUENCE)
Nov 08 09:21:09 ol76a.fake.net kernel: __find_in_sessionid_hashtbl: 1541685387:3955826931:5:0
Nov 08 09:21:09 ol76a.fake.net kernel: nfsd4_sequence: slotid 0
Nov 08 09:21:09 ol76a.fake.net kernel: check_slot_seqid enter. seqid 14 slot_seqid 13
Nov 08 09:21:09 ol76a.fake.net kernel: nfsv4 compound op ffff9691996a4080 opcnt 3 #1: 53: status 0
Nov 08 09:21:09 ol76a.fake.net kernel: nfsv4 compound op #2/3: 22 (OP_PUTFH)
Nov 08 09:21:09 ol76a.fake.net kernel: nfsd: fh_verify(28: 00070001 0613399f 00000000 322291b4 8046d8c2 fb09828f)
Nov 08 09:21:09 ol76a.fake.net kernel: nfsv4 compound op ffff9691996a4080 opcnt 3 #2: 22: status 0
Nov 08 09:21:09 ol76a.fake.net kernel: nfsv4 compound op #3/3: 9 (OP_GETATTR)
Nov 08 09:21:09 ol76a.fake.net kernel: nfsd: fh_verify(28: 00070001 0613399f 00000000 322291b4 8046d8c2 fb09828f)
Nov 08 09:21:09 ol76a.fake.net kernel: nfsv4 compound op ffff9691996a4080 opcnt 3 #3: 9: status 0
Nov 08 09:21:09 ol76a.fake.net kernel: nfsv4 compound returned 0
Nov 08 09:21:09 ol76a.fake.net kernel: --> nfsd4_store_cache_entry slot ffff969181510000
Nov 08 09:21:09 ol76a.fake.net kernel: renewing client (clientid 5be4408b/ebc920f3)
Nov 08 09:21:09 ol76a.fake.net kernel: nfsd_dispatch: vers 4 proc 1
Nov 08 09:21:09 ol76a.fake.net kernel: nfsv4 compound op #1/3: 53 (OP_SEQUENCE)
Nov 08 09:21:09 ol76a.fake.net kernel: __find_in_sessionid_hashtbl: 1541685387:3955826931:5:0
Nov 08 09:21:09 ol76a.fake.net kernel: nfsd4_sequence: slotid 0
Nov 08 09:21:09 ol76a.fake.net kernel: check_slot_seqid enter. seqid 15 slot_seqid 14
Nov 08 09:21:09 ol76a.fake.net kernel: nfsv4 compound op ffff9691996a4080 opcnt 3 #1: 53: status 0
Nov 08 09:21:09 ol76a.fake.net kernel: nfsv4 compound op #2/3: 22 (OP_PUTFH)
Nov 08 09:21:09 ol76a.fake.net kernel: nfsd: fh_verify(28: 00070001 0613399f 00000000 322291b4 8046d8c2 fb09828f)
Nov 08 09:21:09 ol76a.fake.net kernel: nfsv4 compound op ffff9691996a4080 opcnt 3 #2: 22: status 0
Nov 08 09:21:09 ol76a.fake.net kernel: nfsv4 compound op #3/3: 9 (OP_GETATTR)
Nov 08 09:21:09 ol76a.fake.net kernel: nfsd: fh_verify(28: 00070001 0613399f 00000000 322291b4 8046d8c2 fb09828f)
Nov 08 09:21:09 ol76a.fake.net kernel: nfsv4 compound op ffff9691996a4080 opcnt 3 #3: 9: status 0
Nov 08 09:21:09 ol76a.fake.net kernel: nfsv4 compound returned 0
Nov 08 09:21:09 ol76a.fake.net kernel: --> nfsd4_store_cache_entry slot ffff969181510000
Nov 08 09:21:09 ol76a.fake.net kernel: renewing client (clientid 5be4408b/ebc920f3)
Nov 08 09:21:09 ol76a.fake.net kernel: nfsd_dispatch: vers 4 proc 1
Nov 08 09:21:09 ol76a.fake.net kernel: nfsv4 compound op #1/3: 53 (OP_SEQUENCE)
Nov 08 09:21:09 ol76a.fake.net kernel: __find_in_sessionid_hashtbl: 1541685387:3955826931:5:0
Nov 08 09:21:09 ol76a.fake.net kernel: nfsd4_sequence: slotid 0
Nov 08 09:21:09 ol76a.fake.net kernel: check_slot_seqid enter. seqid 16 slot_seqid 15
Nov 08 09:21:09 ol76a.fake.net kernel: nfsv4 compound op ffff9691996a4080 opcnt 3 #1: 53: status 0
Nov 08 09:21:09 ol76a.fake.net kernel: nfsv4 compound op #2/3: 22 (OP_PUTFH)
Nov 08 09:21:09 ol76a.fake.net kernel: nfsd: fh_verify(28: 00070001 0613399f 00000000 322291b4 8046d8c2 fb09828f)
Nov 08 09:21:09 ol76a.fake.net kernel: nfsv4 compound op ffff9691996a4080 opcnt 3 #2: 22: status 0
Nov 08 09:21:09 ol76a.fake.net kernel: nfsv4 compound op #3/3: 9 (OP_GETATTR)
Nov 08 09:21:09 ol76a.fake.net kernel: nfsd: fh_verify(28: 00070001 0613399f 00000000 322291b4 8046d8c2 fb09828f)
Nov 08 09:21:09 ol76a.fake.net kernel: nfsv4 compound op ffff9691996a4080 opcnt 3 #3: 9: status 0
Nov 08 09:21:09 ol76a.fake.net kernel: nfsv4 compound returned 0
Nov 08 09:21:09 ol76a.fake.net kernel: --> nfsd4_store_cache_entry slot ffff969181510000
Nov 08 09:21:09 ol76a.fake.net kernel: renewing client (clientid 5be4408b/ebc920f3)
Nov 08 09:21:09 ol76a.fake.net kernel: nfsd_dispatch: vers 4 proc 1
Nov 08 09:21:09 ol76a.fake.net kernel: nfsv4 compound op #1/3: 53 (OP_SEQUENCE)
Nov 08 09:21:09 ol76a.fake.net kernel: __find_in_sessionid_hashtbl: 1541685387:3955826931:5:0
Nov 08 09:21:09 ol76a.fake.net kernel: nfsd4_sequence: slotid 0
Nov 08 09:21:09 ol76a.fake.net kernel: check_slot_seqid enter. seqid 17 slot_seqid 16
Nov 08 09:21:09 ol76a.fake.net kernel: nfsv4 compound op ffff9691996a4080 opcnt 3 #1: 53: status 0
Nov 08 09:21:09 ol76a.fake.net kernel: nfsv4 compound op #2/3: 22 (OP_PUTFH)
Nov 08 09:21:09 ol76a.fake.net kernel: nfsd: fh_verify(28: 00070001 0613399f 00000000 322291b4 8046d8c2 fb09828f)
Nov 08 09:21:09 ol76a.fake.net kernel: nfsv4 compound op ffff9691996a4080 opcnt 3 #2: 22: status 0
Nov 08 09:21:09 ol76a.fake.net kernel: nfsv4 compound op #3/3: 9 (OP_GETATTR)
Nov 08 09:21:09 ol76a.fake.net kernel: nfsd: fh_verify(28: 00070001 0613399f 00000000 322291b4 8046d8c2 fb09828f)
Nov 08 09:21:09 ol76a.fake.net kernel: nfsv4 compound op ffff9691996a4080 opcnt 3 #3: 9: status 0
Nov 08 09:21:09 ol76a.fake.net kernel: nfsv4 compound returned 0
Nov 08 09:21:09 ol76a.fake.net kernel: --> nfsd4_store_cache_entry slot ffff969181510000
Nov 08 09:21:09 ol76a.fake.net kernel: renewing client (clientid 5be4408b/ebc920f3)
Nov 08 09:21:09 ol76a.fake.net kernel: nfsd_dispatch: vers 4 proc 1
Nov 08 09:21:09 ol76a.fake.net kernel: nfsv4 compound op #1/3: 53 (OP_SEQUENCE)
Nov 08 09:21:09 ol76a.fake.net kernel: __find_in_sessionid_hashtbl: 1541685387:3955826931:5:0
Nov 08 09:21:09 ol76a.fake.net kernel: nfsd4_sequence: slotid 0
Nov 08 09:21:09 ol76a.fake.net kernel: check_slot_seqid enter. seqid 18 slot_seqid 17
Nov 08 09:21:09 ol76a.fake.net kernel: nfsv4 compound op ffff9691996a4080 opcnt 3 #1: 53: status 0
Nov 08 09:21:09 ol76a.fake.net kernel: nfsv4 compound op #2/3: 22 (OP_PUTFH)
Nov 08 09:21:09 ol76a.fake.net kernel: nfsd: fh_verify(28: 00070001 0613399f 00000000 322291b4 8046d8c2 fb09828f)
Nov 08 09:21:09 ol76a.fake.net kernel: nfsv4 compound op ffff9691996a4080 opcnt 3 #2: 22: status 0
Nov 08 09:21:09 ol76a.fake.net kernel: nfsv4 compound op #3/3: 9 (OP_GETATTR)
Nov 08 09:21:09 ol76a.fake.net kernel: nfsd: fh_verify(28: 00070001 0613399f 00000000 322291b4 8046d8c2 fb09828f)
Nov 08 09:21:09 ol76a.fake.net kernel: nfsv4 compound op ffff9691996a4080 opcnt 3 #3: 9: status 0
Nov 08 09:21:09 ol76a.fake.net kernel: nfsv4 compound returned 0
Nov 08 09:21:09 ol76a.fake.net kernel: --> nfsd4_store_cache_entry slot ffff969181510000
Nov 08 09:21:09 ol76a.fake.net kernel: renewing client (clientid 5be4408b/ebc920f3)
Nov 08 09:21:12 ol76a.fake.net kernel: nfsd_dispatch: vers 4 proc 1
Nov 08 09:21:12 ol76a.fake.net kernel: nfsv4 compound op #1/3: 53 (OP_SEQUENCE)
Nov 08 09:21:12 ol76a.fake.net kernel: __find_in_sessionid_hashtbl: 1541685387:3955826926:2:0
Nov 08 09:21:12 ol76a.fake.net kernel: nfsd4_sequence: slotid 0
Nov 08 09:21:12 ol76a.fake.net kernel: check_slot_seqid enter. seqid 71 slot_seqid 70
Nov 08 09:21:12 ol76a.fake.net kernel: nfsv4 compound op ffff9691996a4080 opcnt 3 #1: 53: status 0
Nov 08 09:21:12 ol76a.fake.net kernel: nfsv4 compound op #2/3: 22 (OP_PUTFH)
Nov 08 09:21:12 ol76a.fake.net kernel: nfsd: fh_verify(28: 00070001 0613399f 00000000 322291b4 8046d8c2 fb09828f)
Nov 08 09:21:12 ol76a.fake.net kernel: nfsv4 compound op ffff9691996a4080 opcnt 3 #2: 22: status 0
Nov 08 09:21:12 ol76a.fake.net kernel: nfsv4 compound op #3/3: 9 (OP_GETATTR)
Nov 08 09:21:12 ol76a.fake.net kernel: nfsd: fh_verify(28: 00070001 0613399f 00000000 322291b4 8046d8c2 fb09828f)
Nov 08 09:21:12 ol76a.fake.net kernel: nfsv4 compound op ffff9691996a4080 opcnt 3 #3: 9: status 0
Nov 08 09:21:12 ol76a.fake.net kernel: nfsv4 compound returned 0
Nov 08 09:21:12 ol76a.fake.net kernel: --> nfsd4_store_cache_entry slot ffff969198432000
Nov 08 09:21:12 ol76a.fake.net kernel: renewing client (clientid 5be4408b/ebc920ee)
Nov 08 09:21:12 ol76a.fake.net kernel: nfsd_dispatch: vers 4 proc 1
Nov 08 09:21:12 ol76a.fake.net kernel: nfsv4 compound op #1/3: 53 (OP_SEQUENCE)
Nov 08 09:21:12 ol76a.fake.net kernel: __find_in_sessionid_hashtbl: 1541685387:3955826926:2:0
Nov 08 09:21:12 ol76a.fake.net kernel: nfsd4_sequence: slotid 0
Nov 08 09:21:12 ol76a.fake.net kernel: check_slot_seqid enter. seqid 72 slot_seqid 71
Nov 08 09:21:12 ol76a.fake.net kernel: nfsv4 compound op ffff9691996a4080 opcnt 3 #1: 53: status 0
Nov 08 09:21:12 ol76a.fake.net kernel: nfsv4 compound op #2/3: 22 (OP_PUTFH)
Nov 08 09:21:12 ol76a.fake.net kernel: nfsd: fh_verify(40: 81070001 0613399f 00000000 322291b4 8046d8c2 fb09828f)
Nov 08 09:21:12 ol76a.fake.net kernel: nfsv4 compound op ffff9691996a4080 opcnt 3 #2: 22: status 0
Nov 08 09:21:12 ol76a.fake.net kernel: nfsv4 compound op #3/3: 9 (OP_GETATTR)
Nov 08 09:21:12 ol76a.fake.net kernel: nfsd: fh_verify(40: 81070001 0613399f 00000000 322291b4 8046d8c2 fb09828f)
Nov 08 09:21:12 ol76a.fake.net kernel: nfsv4 compound op ffff9691996a4080 opcnt 3 #3: 9: status 0
Nov 08 09:21:12 ol76a.fake.net kernel: nfsv4 compound returned 0
Nov 08 09:21:12 ol76a.fake.net kernel: --> nfsd4_store_cache_entry slot ffff969198432000
Nov 08 09:21:12 ol76a.fake.net kernel: renewing client (clientid 5be4408b/ebc920ee)
Nov 08 09:21:12 ol76a.fake.net kernel: nfsd_dispatch: vers 4 proc 1
Nov 08 09:21:12 ol76a.fake.net kernel: nfsv4 compound op #1/5: 53 (OP_SEQUENCE)
Nov 08 09:21:12 ol76a.fake.net kernel: __find_in_sessionid_hashtbl: 1541685387:3955826926:2:0
Nov 08 09:21:12 ol76a.fake.net kernel: nfsd4_sequence: slotid 0
Nov 08 09:21:12 ol76a.fake.net kernel: check_slot_seqid enter. seqid 73 slot_seqid 72
Nov 08 09:21:12 ol76a.fake.net kernel: nfsv4 compound op ffff9691996a4080 opcnt 5 #1: 53: status 0
Nov 08 09:21:12 ol76a.fake.net kernel: nfsv4 compound op #2/5: 22 (OP_PUTFH)
Nov 08 09:21:12 ol76a.fake.net kernel: nfsd: fh_verify(40: 81070001 0613399f 00000000 322291b4 8046d8c2 fb09828f)
Nov 08 09:21:12 ol76a.fake.net kernel: nfsv4 compound op ffff9691996a4080 opcnt 5 #2: 22: status 0
Nov 08 09:21:12 ol76a.fake.net kernel: nfsv4 compound op #3/5: 18 (OP_OPEN)
Nov 08 09:21:12 ol76a.fake.net kernel: NFSD: nfsd4_open filename  op_openowner           (null)
Nov 08 09:21:12 ol76a.fake.net kernel: nfsd: fh_verify(40: 81070001 0613399f 00000000 322291b4 8046d8c2 fb09828f)
Nov 08 09:21:12 ol76a.fake.net kernel: nfsd: fh_verify(40: 81070001 0613399f 00000000 322291b4 8046d8c2 fb09828f)
Nov 08 09:21:12 ol76a.fake.net kernel: NFSD alloc_init_deleg
Nov 08 09:21:12 ol76a.fake.net kernel: NFSD: delegation stateid=(5be4408b/ebc920ee/00000012/00000001)
Nov 08 09:21:12 ol76a.fake.net kernel: nfsd4_process_open2: stateid=(5be4408b/ebc920ee/00000011/00000001)
Nov 08 09:21:12 ol76a.fake.net kernel: nfsv4 compound op ffff9691996a4080 opcnt 5 #3: 18: status 0
Nov 08 09:21:12 ol76a.fake.net kernel: nfsv4 compound op #4/5: 3 (OP_ACCESS)
Nov 08 09:21:12 ol76a.fake.net kernel: nfsd: fh_verify(40: 81070001 0613399f 00000000 322291b4 8046d8c2 fb09828f)
Nov 08 09:21:12 ol76a.fake.net kernel: nfsv4 compound op ffff9691996a4080 opcnt 5 #4: 3: status 0
Nov 08 09:21:12 ol76a.fake.net kernel: nfsv4 compound op #5/5: 9 (OP_GETATTR)
Nov 08 09:21:12 ol76a.fake.net kernel: nfsd: fh_verify(40: 81070001 0613399f 00000000 322291b4 8046d8c2 fb09828f)
Nov 08 09:21:12 ol76a.fake.net kernel: nfsv4 compound op ffff9691996a4080 opcnt 5 #5: 9: status 0
Nov 08 09:21:12 ol76a.fake.net kernel: nfsv4 compound returned 0
Nov 08 09:21:12 ol76a.fake.net kernel: --> nfsd4_store_cache_entry slot ffff969198432000
Nov 08 09:21:12 ol76a.fake.net kernel: renewing client (clientid 5be4408b/ebc920ee)
Nov 08 09:21:12 ol76a.fake.net kernel: nfsd_dispatch: vers 4 proc 1
Nov 08 09:21:12 ol76a.fake.net kernel: nfsv4 compound op #1/4: 53 (OP_SEQUENCE)
Nov 08 09:21:12 ol76a.fake.net kernel: __find_in_sessionid_hashtbl: 1541685387:3955826926:2:0
Nov 08 09:21:12 ol76a.fake.net kernel: nfsd4_sequence: slotid 0
Nov 08 09:21:12 ol76a.fake.net kernel: check_slot_seqid enter. seqid 74 slot_seqid 73
Nov 08 09:21:12 ol76a.fake.net kernel: nfsv4 compound op ffff9691996a4080 opcnt 4 #1: 53: status 0
Nov 08 09:21:12 ol76a.fake.net kernel: nfsv4 compound op #2/4: 22 (OP_PUTFH)
Nov 08 09:21:12 ol76a.fake.net kernel: nfsd: fh_verify(40: 81070001 0613399f 00000000 322291b4 8046d8c2 fb09828f)
Nov 08 09:21:12 ol76a.fake.net kernel: nfsv4 compound op ffff9691996a4080 opcnt 4 #2: 22: status 0
Nov 08 09:21:12 ol76a.fake.net kernel: nfsv4 compound op #3/4: 3 (OP_ACCESS)
Nov 08 09:21:12 ol76a.fake.net kernel: nfsd: fh_verify(40: 81070001 0613399f 00000000 322291b4 8046d8c2 fb09828f)
Nov 08 09:21:12 ol76a.fake.net kernel: nfsv4 compound op ffff9691996a4080 opcnt 4 #3: 3: status 0
Nov 08 09:21:12 ol76a.fake.net kernel: nfsv4 compound op #4/4: 9 (OP_GETATTR)
Nov 08 09:21:12 ol76a.fake.net kernel: nfsd: fh_verify(40: 81070001 0613399f 00000000 322291b4 8046d8c2 fb09828f)
Nov 08 09:21:12 ol76a.fake.net kernel: nfsv4 compound op ffff9691996a4080 opcnt 4 #4: 9: status 0
Nov 08 09:21:12 ol76a.fake.net kernel: nfsv4 compound returned 0
Nov 08 09:21:12 ol76a.fake.net kernel: --> nfsd4_store_cache_entry slot ffff969198432000
Nov 08 09:21:12 ol76a.fake.net kernel: renewing client (clientid 5be4408b/ebc920ee)
Nov 08 09:21:12 ol76a.fake.net kernel: nfsd_dispatch: vers 4 proc 1
Nov 08 09:21:12 ol76a.fake.net kernel: nfsv4 compound op #1/3: 53 (OP_SEQUENCE)
Nov 08 09:21:12 ol76a.fake.net kernel: __find_in_sessionid_hashtbl: 1541685387:3955826926:2:0
Nov 08 09:21:12 ol76a.fake.net kernel: nfsd4_sequence: slotid 0
Nov 08 09:21:12 ol76a.fake.net kernel: check_slot_seqid enter. seqid 75 slot_seqid 74
Nov 08 09:21:12 ol76a.fake.net kernel: nfsv4 compound op ffff9691996a4080 opcnt 3 #1: 53: status 0
Nov 08 09:21:12 ol76a.fake.net kernel: nfsv4 compound op #2/3: 22 (OP_PUTFH)
Nov 08 09:21:12 ol76a.fake.net kernel: nfsd: fh_verify(40: 81070001 0613399f 00000000 322291b4 8046d8c2 fb09828f)
Nov 08 09:21:12 ol76a.fake.net kernel: nfsv4 compound op ffff9691996a4080 opcnt 3 #2: 22: status 0
Nov 08 09:21:12 ol76a.fake.net kernel: nfsv4 compound op #3/3: 4 (OP_CLOSE)
Nov 08 09:21:12 ol76a.fake.net kernel: NFSD: nfsd4_close on file xxx
Nov 08 09:21:12 ol76a.fake.net kernel: NFSD: nfs4_preprocess_seqid_op: seqid=0 stateid = (5be4408b/ebc920ee/00000011/00000001)
Nov 08 09:21:12 ol76a.fake.net kernel: nfsv4 compound op ffff9691996a4080 opcnt 3 #3: 4: status 0
Nov 08 09:21:12 ol76a.fake.net kernel: nfsv4 compound returned 0
Nov 08 09:21:12 ol76a.fake.net kernel: --> nfsd4_store_cache_entry slot ffff969198432000
Nov 08 09:21:12 ol76a.fake.net kernel: renewing client (clientid 5be4408b/ebc920ee)
Nov 08 09:21:12 ol76a.fake.net kernel: nfsd_dispatch: vers 4 proc 1
Nov 08 09:21:12 ol76a.fake.net kernel: nfsv4 compound op #1/4: 53 (OP_SEQUENCE)
Nov 08 09:21:12 ol76a.fake.net kernel: __find_in_sessionid_hashtbl: 1541685387:3955826926:2:0
Nov 08 09:21:12 ol76a.fake.net kernel: nfsd4_sequence: slotid 0
Nov 08 09:21:12 ol76a.fake.net kernel: check_slot_seqid enter. seqid 76 slot_seqid 75
Nov 08 09:21:12 ol76a.fake.net kernel: nfsv4 compound op ffff9691996a4080 opcnt 4 #1: 53: status 0
Nov 08 09:21:12 ol76a.fake.net kernel: nfsv4 compound op #2/4: 22 (OP_PUTFH)
Nov 08 09:21:12 ol76a.fake.net kernel: nfsd: fh_verify(40: 81070001 0613399f 00000000 322291b4 8046d8c2 fb09828f)
Nov 08 09:21:12 ol76a.fake.net kernel: nfsv4 compound op ffff9691996a4080 opcnt 4 #2: 22: status 0
Nov 08 09:21:12 ol76a.fake.net kernel: nfsv4 compound op #3/4: 9 (OP_GETATTR)
Nov 08 09:21:12 ol76a.fake.net kernel: nfsd: fh_verify(40: 81070001 0613399f 00000000 322291b4 8046d8c2 fb09828f)
Nov 08 09:21:12 ol76a.fake.net kernel: nfsv4 compound op ffff9691996a4080 opcnt 4 #3: 9: status 0
Nov 08 09:21:12 ol76a.fake.net kernel: nfsv4 compound op #4/4: 8 (OP_DELEGRETURN)
Nov 08 09:21:12 ol76a.fake.net kernel: nfsd: fh_verify(40: 81070001 0613399f 00000000 322291b4 8046d8c2 fb09828f)
Nov 08 09:21:12 ol76a.fake.net kernel: nfsv4 compound op ffff9691996a4080 opcnt 4 #4: 8: status 0
Nov 08 09:21:12 ol76a.fake.net kernel: nfsv4 compound returned 0
Nov 08 09:21:12 ol76a.fake.net kernel: --> nfsd4_store_cache_entry slot ffff969198432000
Nov 08 09:21:12 ol76a.fake.net kernel: renewing client (clientid 5be4408b/ebc920ee)
Nov 08 09:21:12 ol76a.fake.net kernel: nfsd_dispatch: vers 4 proc 1
Nov 08 09:21:12 ol76a.fake.net kernel: nfsv4 compound op #1/5: 53 (OP_SEQUENCE)
Nov 08 09:21:12 ol76a.fake.net kernel: __find_in_sessionid_hashtbl: 1541685387:3955826926:2:0
Nov 08 09:21:12 ol76a.fake.net kernel: nfsd4_sequence: slotid 0
Nov 08 09:21:12 ol76a.fake.net kernel: check_slot_seqid enter. seqid 77 slot_seqid 76
Nov 08 09:21:12 ol76a.fake.net kernel: nfsv4 compound op ffff9691996a4080 opcnt 5 #1: 53: status 0
Nov 08 09:21:12 ol76a.fake.net kernel: nfsv4 compound op #2/5: 22 (OP_PUTFH)
Nov 08 09:21:12 ol76a.fake.net kernel: nfsd: fh_verify(40: 81070001 0613399f 00000000 322291b4 8046d8c2 fb09828f)
Nov 08 09:21:12 ol76a.fake.net kernel: nfsv4 compound op ffff9691996a4080 opcnt 5 #2: 22: status 0
Nov 08 09:21:12 ol76a.fake.net kernel: nfsv4 compound op #3/5: 18 (OP_OPEN)
Nov 08 09:21:12 ol76a.fake.net kernel: NFSD: nfsd4_open filename  op_openowner           (null)
Nov 08 09:21:12 ol76a.fake.net kernel: nfsd: fh_verify(40: 81070001 0613399f 00000000 322291b4 8046d8c2 fb09828f)
Nov 08 09:21:12 ol76a.fake.net kernel: nfsd: fh_verify(40: 81070001 0613399f 00000000 322291b4 8046d8c2 fb09828f)
Nov 08 09:21:12 ol76a.fake.net kernel: nfsd4_process_open2: stateid=(5be4408b/ebc920ee/00000013/00000001)
Nov 08 09:21:12 ol76a.fake.net kernel: nfsv4 compound op ffff9691996a4080 opcnt 5 #3: 18: status 0
Nov 08 09:21:12 ol76a.fake.net kernel: nfsv4 compound op #4/5: 3 (OP_ACCESS)
Nov 08 09:21:12 ol76a.fake.net kernel: nfsd: fh_verify(40: 81070001 0613399f 00000000 322291b4 8046d8c2 fb09828f)
Nov 08 09:21:12 ol76a.fake.net kernel: nfsv4 compound op ffff9691996a4080 opcnt 5 #4: 3: status 0
Nov 08 09:21:12 ol76a.fake.net kernel: nfsv4 compound op #5/5: 9 (OP_GETATTR)
Nov 08 09:21:12 ol76a.fake.net kernel: nfsd: fh_verify(40: 81070001 0613399f 00000000 322291b4 8046d8c2 fb09828f)
Nov 08 09:21:12 ol76a.fake.net kernel: nfsv4 compound op ffff9691996a4080 opcnt 5 #5: 9: status 0
Nov 08 09:21:12 ol76a.fake.net kernel: nfsv4 compound returned 0
Nov 08 09:21:12 ol76a.fake.net kernel: --> nfsd4_store_cache_entry slot ffff969198432000
Nov 08 09:21:12 ol76a.fake.net kernel: renewing client (clientid 5be4408b/ebc920ee)
Nov 08 09:21:12 ol76a.fake.net kernel: nfsd_dispatch: vers 4 proc 1
Nov 08 09:21:12 ol76a.fake.net kernel: nfsv4 compound op #1/3: 53 (OP_SEQUENCE)
Nov 08 09:21:12 ol76a.fake.net kernel: __find_in_sessionid_hashtbl: 1541685387:3955826926:2:0
Nov 08 09:21:12 ol76a.fake.net kernel: nfsd4_sequence: slotid 0
Nov 08 09:21:12 ol76a.fake.net kernel: check_slot_seqid enter. seqid 78 slot_seqid 77
Nov 08 09:21:12 ol76a.fake.net kernel: nfsv4 compound op ffff9691996a4080 opcnt 3 #1: 53: status 0
Nov 08 09:21:12 ol76a.fake.net kernel: nfsv4 compound op #2/3: 22 (OP_PUTFH)
Nov 08 09:21:12 ol76a.fake.net kernel: nfsd: fh_verify(40: 81070001 0613399f 00000000 322291b4 8046d8c2 fb09828f)
Nov 08 09:21:12 ol76a.fake.net kernel: nfsv4 compound op ffff9691996a4080 opcnt 3 #2: 22: status 0
Nov 08 09:21:12 ol76a.fake.net kernel: nfsv4 compound op #3/3: 12 (OP_LOCK)
Nov 08 09:21:12 ol76a.fake.net kernel: NFSD: nfsd4_lock: start=0 length=-1
Nov 08 09:21:12 ol76a.fake.net kernel: nfsd: fh_verify(40: 81070001 0613399f 00000000 322291b4 8046d8c2 fb09828f)
Nov 08 09:21:12 ol76a.fake.net kernel: NFSD: nfs4_preprocess_seqid_op: seqid=0 stateid = (5be4408b/ebc920ee/00000013/00000001)
Nov 08 09:21:12 ol76a.fake.net kernel: nfsv4 compound op ffff9691996a4080 opcnt 3 #3: 12: status 0
Nov 08 09:21:12 ol76a.fake.net kernel: nfsv4 compound returned 0
Nov 08 09:21:12 ol76a.fake.net kernel: --> nfsd4_store_cache_entry slot ffff969198432000
Nov 08 09:21:12 ol76a.fake.net kernel: renewing client (clientid 5be4408b/ebc920ee)
Nov 08 09:21:12 ol76a.fake.net kernel: nfsd_dispatch: vers 4 proc 1
Nov 08 09:21:12 ol76a.fake.net kernel: nfsv4 compound op #1/3: 53 (OP_SEQUENCE)
Nov 08 09:21:12 ol76a.fake.net kernel: __find_in_sessionid_hashtbl: 1541685387:3955826927:3:0
Nov 08 09:21:12 ol76a.fake.net kernel: nfsd4_sequence: slotid 0
Nov 08 09:21:12 ol76a.fake.net kernel: check_slot_seqid enter. seqid 68 slot_seqid 67
Nov 08 09:21:12 ol76a.fake.net kernel: nfsv4 compound op ffff9691996a4080 opcnt 3 #1: 53: status 0
Nov 08 09:21:12 ol76a.fake.net kernel: nfsv4 compound op #2/3: 22 (OP_PUTFH)
Nov 08 09:21:12 ol76a.fake.net kernel: nfsd: fh_verify(28: 00070001 0613399f 00000000 322291b4 8046d8c2 fb09828f)
Nov 08 09:21:12 ol76a.fake.net kernel: nfsv4 compound op ffff9691996a4080 opcnt 3 #2: 22: status 0
Nov 08 09:21:12 ol76a.fake.net kernel: nfsv4 compound op #3/3: 9 (OP_GETATTR)
Nov 08 09:21:12 ol76a.fake.net kernel: nfsd: fh_verify(28: 00070001 0613399f 00000000 322291b4 8046d8c2 fb09828f)
Nov 08 09:21:12 ol76a.fake.net kernel: nfsv4 compound op ffff9691996a4080 opcnt 3 #3: 9: status 0
Nov 08 09:21:12 ol76a.fake.net kernel: nfsv4 compound returned 0
Nov 08 09:21:12 ol76a.fake.net kernel: --> nfsd4_store_cache_entry slot ffff969199e9f000
Nov 08 09:21:12 ol76a.fake.net kernel: renewing client (clientid 5be4408b/ebc920ef)
Nov 08 09:21:17 ol76a.fake.net kernel: nfsd_dispatch: vers 4 proc 1
Nov 08 09:21:17 ol76a.fake.net kernel: nfsv4 compound op #1/4: 53 (OP_SEQUENCE)
Nov 08 09:21:17 ol76a.fake.net kernel: __find_in_sessionid_hashtbl: 1541685387:3955826931:5:0
Nov 08 09:21:17 ol76a.fake.net kernel: nfsd4_sequence: slotid 0
Nov 08 09:21:17 ol76a.fake.net kernel: check_slot_seqid enter. seqid 19 slot_seqid 18
Nov 08 09:21:17 ol76a.fake.net kernel: nfsv4 compound op ffff9691996a4080 opcnt 4 #1: 53: status 0
Nov 08 09:21:17 ol76a.fake.net kernel: nfsv4 compound op #2/4: 22 (OP_PUTFH)
Nov 08 09:21:17 ol76a.fake.net kernel: nfsd: fh_verify(28: 00070001 0613399f 00000000 322291b4 8046d8c2 fb09828f)
Nov 08 09:21:17 ol76a.fake.net kernel: nfsv4 compound op ffff9691996a4080 opcnt 4 #2: 22: status 0
Nov 08 09:21:17 ol76a.fake.net kernel: nfsv4 compound op #3/4: 3 (OP_ACCESS)
Nov 08 09:21:17 ol76a.fake.net kernel: nfsd: fh_verify(28: 00070001 0613399f 00000000 322291b4 8046d8c2 fb09828f)
Nov 08 09:21:17 ol76a.fake.net kernel: nfsv4 compound op ffff9691996a4080 opcnt 4 #3: 3: status 0
Nov 08 09:21:17 ol76a.fake.net kernel: nfsv4 compound op #4/4: 9 (OP_GETATTR)
Nov 08 09:21:17 ol76a.fake.net kernel: nfsd: fh_verify(28: 00070001 0613399f 00000000 322291b4 8046d8c2 fb09828f)
Nov 08 09:21:17 ol76a.fake.net kernel: nfsv4 compound op ffff9691996a4080 opcnt 4 #4: 9: status 0
Nov 08 09:21:17 ol76a.fake.net kernel: nfsv4 compound returned 0
Nov 08 09:21:17 ol76a.fake.net kernel: --> nfsd4_store_cache_entry slot ffff969181510000
Nov 08 09:21:17 ol76a.fake.net kernel: renewing client (clientid 5be4408b/ebc920f3)
Nov 08 09:21:17 ol76a.fake.net kernel: nfsd_dispatch: vers 4 proc 1
Nov 08 09:21:17 ol76a.fake.net kernel: nfsv4 compound op #1/6: 53 (OP_SEQUENCE)
Nov 08 09:21:17 ol76a.fake.net kernel: __find_in_sessionid_hashtbl: 1541685387:3955826931:5:0
Nov 08 09:21:17 ol76a.fake.net kernel: nfsd4_sequence: slotid 0
Nov 08 09:21:17 ol76a.fake.net kernel: check_slot_seqid enter. seqid 20 slot_seqid 19
Nov 08 09:21:17 ol76a.fake.net kernel: nfsv4 compound op ffff9691996a4080 opcnt 6 #1: 53: status 0
Nov 08 09:21:17 ol76a.fake.net kernel: nfsv4 compound op #2/6: 22 (OP_PUTFH)
Nov 08 09:21:17 ol76a.fake.net kernel: nfsd: fh_verify(28: 00070001 0613399f 00000000 322291b4 8046d8c2 fb09828f)
Nov 08 09:21:17 ol76a.fake.net kernel: nfsv4 compound op ffff9691996a4080 opcnt 6 #2: 22: status 0
Nov 08 09:21:17 ol76a.fake.net kernel: nfsv4 compound op #3/6: 18 (OP_OPEN)
Nov 08 09:21:17 ol76a.fake.net kernel: NFSD: nfsd4_open filename xxx op_openowner           (null)
Nov 08 09:21:17 ol76a.fake.net kernel: nfsd: fh_verify(28: 00070001 0613399f 00000000 322291b4 8046d8c2 fb09828f)
Nov 08 09:21:17 ol76a.fake.net kernel: nfsd: fh_compose(exp fc:00/101923231 export/xxx, ino=101923230)
Nov 08 09:21:17 ol76a.fake.net kernel: nfsd: fh_verify(40: 81070001 0613399f 00000000 322291b4 8046d8c2 fb09828f)
Nov 08 09:21:17 ol76a.fake.net kernel: nfsd: fh_verify(40: 81070001 0613399f 00000000 322291b4 8046d8c2 fb09828f)
Nov 08 09:21:17 ol76a.fake.net kernel: nfsd4_process_open2: stateid=(5be4408b/ebc920f3/00000000/00000001)
Nov 08 09:21:17 ol76a.fake.net kernel: nfsv4 compound op ffff9691996a4080 opcnt 6 #3: 18: status 0
Nov 08 09:21:17 ol76a.fake.net kernel: nfsv4 compound op #4/6: 10 (OP_GETFH)
Nov 08 09:21:17 ol76a.fake.net kernel: nfsv4 compound op ffff9691996a4080 opcnt 6 #4: 10: status 0
Nov 08 09:21:17 ol76a.fake.net kernel: nfsv4 compound op #5/6: 3 (OP_ACCESS)
Nov 08 09:21:17 ol76a.fake.net kernel: nfsd: fh_verify(40: 81070001 0613399f 00000000 322291b4 8046d8c2 fb09828f)
Nov 08 09:21:17 ol76a.fake.net kernel: nfsv4 compound op ffff9691996a4080 opcnt 6 #5: 3: status 0
Nov 08 09:21:17 ol76a.fake.net kernel: nfsv4 compound op #6/6: 9 (OP_GETATTR)
Nov 08 09:21:17 ol76a.fake.net kernel: nfsd: fh_verify(40: 81070001 0613399f 00000000 322291b4 8046d8c2 fb09828f)
Nov 08 09:21:17 ol76a.fake.net kernel: nfsv4 compound op ffff9691996a4080 opcnt 6 #6: 9: status 0
Nov 08 09:21:17 ol76a.fake.net kernel: nfsv4 compound returned 0
Nov 08 09:21:17 ol76a.fake.net kernel: --> nfsd4_store_cache_entry slot ffff969181510000
Nov 08 09:21:17 ol76a.fake.net kernel: renewing client (clientid 5be4408b/ebc920f3)
Nov 08 09:21:17 ol76a.fake.net kernel: nfsd_dispatch: vers 4 proc 1
Nov 08 09:21:17 ol76a.fake.net kernel: nfsv4 compound op #1/4: 53 (OP_SEQUENCE)
Nov 08 09:21:17 ol76a.fake.net kernel: __find_in_sessionid_hashtbl: 1541685387:3955826931:5:0
Nov 08 09:21:17 ol76a.fake.net kernel: nfsd4_sequence: slotid 0
Nov 08 09:21:17 ol76a.fake.net kernel: check_slot_seqid enter. seqid 21 slot_seqid 20
Nov 08 09:21:17 ol76a.fake.net kernel: nfsv4 compound op ffff9691996a4080 opcnt 4 #1: 53: status 0
Nov 08 09:21:17 ol76a.fake.net kernel: nfsv4 compound op #2/4: 22 (OP_PUTFH)
Nov 08 09:21:17 ol76a.fake.net kernel: nfsd: fh_verify(40: 81070001 0613399f 00000000 322291b4 8046d8c2 fb09828f)
Nov 08 09:21:17 ol76a.fake.net kernel: nfsv4 compound op ffff9691996a4080 opcnt 4 #2: 22: status 0
Nov 08 09:21:17 ol76a.fake.net kernel: nfsv4 compound op #3/4: 9 (OP_GETATTR)
Nov 08 09:21:17 ol76a.fake.net kernel: nfsd: fh_verify(40: 81070001 0613399f 00000000 322291b4 8046d8c2 fb09828f)
Nov 08 09:21:17 ol76a.fake.net kernel: nfsv4 compound op ffff9691996a4080 opcnt 4 #3: 9: status 0
Nov 08 09:21:17 ol76a.fake.net kernel: nfsv4 compound op #4/4: 4 (OP_CLOSE)
Nov 08 09:21:17 ol76a.fake.net kernel: NFSD: nfsd4_close on file xxx
Nov 08 09:21:17 ol76a.fake.net kernel: NFSD: nfs4_preprocess_seqid_op: seqid=0 stateid = (5be4408b/ebc920f3/00000000/00000001)
Nov 08 09:21:17 ol76a.fake.net kernel: nfsv4 compound op ffff9691996a4080 opcnt 4 #4: 4: status 0
Nov 08 09:21:17 ol76a.fake.net kernel: nfsv4 compound returned 0
Nov 08 09:21:17 ol76a.fake.net kernel: --> nfsd4_store_cache_entry slot ffff969181510000
Nov 08 09:21:17 ol76a.fake.net kernel: renewing client (clientid 5be4408b/ebc920f3)
Nov 08 09:21:17 ol76a.fake.net kernel: nfsd_dispatch: vers 4 proc 1
Nov 08 09:21:17 ol76a.fake.net kernel: nfsv4 compound op #1/3: 53 (OP_SEQUENCE)
Nov 08 09:21:17 ol76a.fake.net kernel: __find_in_sessionid_hashtbl: 1541685387:3955826931:5:0
Nov 08 09:21:17 ol76a.fake.net kernel: nfsd4_sequence: slotid 0
Nov 08 09:21:17 ol76a.fake.net kernel: check_slot_seqid enter. seqid 22 slot_seqid 21
Nov 08 09:21:17 ol76a.fake.net kernel: nfsv4 compound op ffff9691996a4080 opcnt 3 #1: 53: status 0
Nov 08 09:21:17 ol76a.fake.net kernel: nfsv4 compound op #2/3: 22 (OP_PUTFH)
Nov 08 09:21:17 ol76a.fake.net kernel: nfsd: fh_verify(40: 81070001 0613399f 00000000 322291b4 8046d8c2 fb09828f)
Nov 08 09:21:17 ol76a.fake.net kernel: nfsv4 compound op ffff9691996a4080 opcnt 3 #2: 22: status 0
Nov 08 09:21:17 ol76a.fake.net kernel: nfsv4 compound op #3/3: 9 (OP_GETATTR)
Nov 08 09:21:17 ol76a.fake.net kernel: nfsd: fh_verify(40: 81070001 0613399f 00000000 322291b4 8046d8c2 fb09828f)
Nov 08 09:21:17 ol76a.fake.net kernel: nfsv4 compound op ffff9691996a4080 opcnt 3 #3: 9: status 0
Nov 08 09:21:17 ol76a.fake.net kernel: nfsv4 compound returned 0
Nov 08 09:21:17 ol76a.fake.net kernel: --> nfsd4_store_cache_entry slot ffff969181510000
Nov 08 09:21:17 ol76a.fake.net kernel: renewing client (clientid 5be4408b/ebc920f3)
Nov 08 09:21:17 ol76a.fake.net kernel: nfsd_dispatch: vers 4 proc 1
Nov 08 09:21:17 ol76a.fake.net kernel: nfsv4 compound op #1/5: 53 (OP_SEQUENCE)
Nov 08 09:21:17 ol76a.fake.net kernel: __find_in_sessionid_hashtbl: 1541685387:3955826931:5:0
Nov 08 09:21:17 ol76a.fake.net kernel: nfsd4_sequence: slotid 0
Nov 08 09:21:17 ol76a.fake.net kernel: check_slot_seqid enter. seqid 23 slot_seqid 22
Nov 08 09:21:17 ol76a.fake.net kernel: nfsv4 compound op ffff9691996a4080 opcnt 5 #1: 53: status 0
Nov 08 09:21:17 ol76a.fake.net kernel: nfsv4 compound op #2/5: 22 (OP_PUTFH)
Nov 08 09:21:17 ol76a.fake.net kernel: nfsd: fh_verify(40: 81070001 0613399f 00000000 322291b4 8046d8c2 fb09828f)
Nov 08 09:21:17 ol76a.fake.net kernel: nfsv4 compound op ffff9691996a4080 opcnt 5 #2: 22: status 0
Nov 08 09:21:17 ol76a.fake.net kernel: nfsv4 compound op #3/5: 18 (OP_OPEN)
Nov 08 09:21:17 ol76a.fake.net kernel: NFSD: nfsd4_open filename  op_openowner           (null)
Nov 08 09:21:17 ol76a.fake.net kernel: nfsd: fh_verify(40: 81070001 0613399f 00000000 322291b4 8046d8c2 fb09828f)
Nov 08 09:21:17 ol76a.fake.net kernel: nfsd4_process_open2: stateid=(5be4408b/ebc920f3/00000001/00000001)
Nov 08 09:21:17 ol76a.fake.net kernel: nfsv4 compound op ffff9691996a4080 opcnt 5 #3: 18: status 0
Nov 08 09:21:17 ol76a.fake.net kernel: nfsv4 compound op #4/5: 3 (OP_ACCESS)
Nov 08 09:21:17 ol76a.fake.net kernel: nfsd: fh_verify(40: 81070001 0613399f 00000000 322291b4 8046d8c2 fb09828f)
Nov 08 09:21:17 ol76a.fake.net kernel: nfsv4 compound op ffff9691996a4080 opcnt 5 #4: 3: status 0
Nov 08 09:21:17 ol76a.fake.net kernel: nfsv4 compound op #5/5: 9 (OP_GETATTR)
Nov 08 09:21:17 ol76a.fake.net kernel: nfsd: fh_verify(40: 81070001 0613399f 00000000 322291b4 8046d8c2 fb09828f)
Nov 08 09:21:17 ol76a.fake.net kernel: nfsv4 compound op ffff9691996a4080 opcnt 5 #5: 9: status 0
Nov 08 09:21:17 ol76a.fake.net kernel: nfsv4 compound returned 0
Nov 08 09:21:17 ol76a.fake.net kernel: --> nfsd4_store_cache_entry slot ffff969181510000
Nov 08 09:21:17 ol76a.fake.net kernel: renewing client (clientid 5be4408b/ebc920f3)
Nov 08 09:21:17 ol76a.fake.net kernel: nfsd_dispatch: vers 4 proc 1
Nov 08 09:21:17 ol76a.fake.net kernel: nfsv4 compound op #1/3: 53 (OP_SEQUENCE)
Nov 08 09:21:17 ol76a.fake.net kernel: __find_in_sessionid_hashtbl: 1541685387:3955826931:5:0
Nov 08 09:21:17 ol76a.fake.net kernel: nfsd4_sequence: slotid 0
Nov 08 09:21:17 ol76a.fake.net kernel: check_slot_seqid enter. seqid 24 slot_seqid 23
Nov 08 09:21:17 ol76a.fake.net kernel: nfsv4 compound op ffff9691996a4080 opcnt 3 #1: 53: status 0
Nov 08 09:21:17 ol76a.fake.net kernel: nfsv4 compound op #2/3: 22 (OP_PUTFH)
Nov 08 09:21:17 ol76a.fake.net kernel: nfsd: fh_verify(40: 81070001 0613399f 00000000 322291b4 8046d8c2 fb09828f)
Nov 08 09:21:17 ol76a.fake.net kernel: nfsv4 compound op ffff9691996a4080 opcnt 3 #2: 22: status 0
Nov 08 09:21:17 ol76a.fake.net kernel: nfsv4 compound op #3/3: 12 (OP_LOCK)
Nov 08 09:21:17 ol76a.fake.net kernel: NFSD: nfsd4_lock: start=0 length=-1
Nov 08 09:21:17 ol76a.fake.net kernel: nfsd: fh_verify(40: 81070001 0613399f 00000000 322291b4 8046d8c2 fb09828f)
Nov 08 09:21:17 ol76a.fake.net kernel: NFSD: nfs4_preprocess_seqid_op: seqid=0 stateid = (5be4408b/ebc920f3/00000001/00000001)
Nov 08 09:21:17 ol76a.fake.net kernel: NFSD: nfsd4_lock: conflicting lock found!
Nov 08 09:21:17 ol76a.fake.net kernel: nfsv4 compound op ffff9691996a4080 opcnt 3 #3: 12: status 10010
Nov 08 09:21:17 ol76a.fake.net kernel: nfsv4 compound returned 10010
Nov 08 09:21:17 ol76a.fake.net kernel: --> nfsd4_store_cache_entry slot ffff969181510000
Nov 08 09:21:17 ol76a.fake.net kernel: renewing client (clientid 5be4408b/ebc920f3)







Nov 08 09:21:45 ol76a.fake.net kernel: NFSD: laundromat service - starting
Nov 08 09:21:45 ol76a.fake.net kernel: NFSD: laundromat_main - sleeping for 57 seconds
Nov 08 09:21:48 ol76a.fake.net kernel: nfsd_dispatch: vers 4 proc 1
Nov 08 09:21:48 ol76a.fake.net kernel: nfsv4 compound op #1/3: 53 (OP_SEQUENCE)
Nov 08 09:21:48 ol76a.fake.net kernel: __find_in_sessionid_hashtbl: 1541685387:3955826931:5:0
Nov 08 09:21:48 ol76a.fake.net kernel: nfsd4_sequence: slotid 0
Nov 08 09:21:48 ol76a.fake.net kernel: check_slot_seqid enter. seqid 25 slot_seqid 24
Nov 08 09:21:48 ol76a.fake.net kernel: nfsv4 compound op ffff9691996a4080 opcnt 3 #1: 53: status 0
Nov 08 09:21:48 ol76a.fake.net kernel: nfsv4 compound op #2/3: 22 (OP_PUTFH)
Nov 08 09:21:48 ol76a.fake.net kernel: nfsd: fh_verify(40: 81070001 0613399f 00000000 322291b4 8046d8c2 fb09828f)
Nov 08 09:21:48 ol76a.fake.net kernel: nfsv4 compound op ffff9691996a4080 opcnt 3 #2: 22: status 0
Nov 08 09:21:48 ol76a.fake.net kernel: nfsv4 compound op #3/3: 12 (OP_LOCK)
Nov 08 09:21:48 ol76a.fake.net kernel: NFSD: nfsd4_lock: start=0 length=-1
Nov 08 09:21:48 ol76a.fake.net kernel: nfsd: fh_verify(40: 81070001 0613399f 00000000 322291b4 8046d8c2 fb09828f)
Nov 08 09:21:48 ol76a.fake.net kernel: NFSD: nfs4_preprocess_seqid_op: seqid=0 stateid = (5be4408b/ebc920f3/00000001/00000001)
Nov 08 09:21:48 ol76a.fake.net kernel: NFSD: nfsd4_lock: conflicting lock found!
Nov 08 09:21:48 ol76a.fake.net kernel: nfsv4 compound op ffff9691996a4080 opcnt 3 #3: 12: status 10010
Nov 08 09:21:48 ol76a.fake.net kernel: nfsv4 compound returned 10010
Nov 08 09:21:48 ol76a.fake.net kernel: --> nfsd4_store_cache_entry slot ffff969181510000
Nov 08 09:21:48 ol76a.fake.net kernel: renewing client (clientid 5be4408b/ebc920f3)


Nov 08 09:21:52 ol76a.fake.net kernel: nfsd_dispatch: vers 4 proc 1
Nov 08 09:21:52 ol76a.fake.net kernel: nfsv4 compound op #1/3: 53 (OP_SEQUENCE)
Nov 08 09:21:52 ol76a.fake.net kernel: __find_in_sessionid_hashtbl: 1541685387:3955826926:2:0
Nov 08 09:21:52 ol76a.fake.net kernel: nfsd4_sequence: slotid 0
Nov 08 09:21:52 ol76a.fake.net kernel: check_slot_seqid enter. seqid 79 slot_seqid 78
Nov 08 09:21:52 ol76a.fake.net kernel: nfsv4 compound op ffff9691996a4080 opcnt 3 #1: 53: status 0
Nov 08 09:21:52 ol76a.fake.net kernel: nfsv4 compound op #2/3: 22 (OP_PUTFH)
Nov 08 09:21:52 ol76a.fake.net kernel: nfsd: fh_verify(40: 81070001 0613399f 00000000 322291b4 8046d8c2 fb09828f)
Nov 08 09:21:52 ol76a.fake.net kernel: nfsv4 compound op ffff9691996a4080 opcnt 3 #2: 22: status 0
Nov 08 09:21:52 ol76a.fake.net kernel: nfsv4 compound op #3/3: 14 (OP_LOCKU)
Nov 08 09:21:52 ol76a.fake.net kernel: NFSD: nfsd4_locku: start=0 length=-1
Nov 08 09:21:52 ol76a.fake.net kernel: NFSD: nfs4_preprocess_seqid_op: seqid=0 stateid = (5be4408b/ebc920ee/00000014/00000001)
Nov 08 09:21:52 ol76a.fake.net kernel: nfsv4 compound op ffff9691996a4080 opcnt 3 #3: 14: status 0
Nov 08 09:21:52 ol76a.fake.net kernel: nfsv4 compound returned 0
Nov 08 09:21:52 ol76a.fake.net kernel: --> nfsd4_store_cache_entry slot ffff969198432000
Nov 08 09:21:52 ol76a.fake.net kernel: renewing client (clientid 5be4408b/ebc920ee)
Nov 08 09:21:52 ol76a.fake.net kernel: nfsd_dispatch: vers 4 proc 1
Nov 08 09:21:52 ol76a.fake.net kernel: nfsv4 compound op #1/2: 53 (OP_SEQUENCE)
Nov 08 09:21:52 ol76a.fake.net kernel: __find_in_sessionid_hashtbl: 1541685387:3955826926:2:0
Nov 08 09:21:52 ol76a.fake.net kernel: nfsd4_sequence: slotid 0
Nov 08 09:21:52 ol76a.fake.net kernel: check_slot_seqid enter. seqid 80 slot_seqid 79
Nov 08 09:21:52 ol76a.fake.net kernel: nfsv4 compound op ffff9691996a4080 opcnt 2 #1: 53: status 0
Nov 08 09:21:52 ol76a.fake.net kernel: nfsv4 compound op #2/2: 45 (OP_FREE_STATEID)
Nov 08 09:21:52 ol76a.fake.net kernel: nfsv4 compound op ffff9691996a4080 opcnt 2 #2: 45: status 0
Nov 08 09:21:52 ol76a.fake.net kernel: nfsv4 compound returned 0
Nov 08 09:21:52 ol76a.fake.net kernel: --> nfsd4_store_cache_entry slot ffff969198432000
Nov 08 09:21:52 ol76a.fake.net kernel: renewing client (clientid 5be4408b/ebc920ee)
Nov 08 09:21:52 ol76a.fake.net kernel: nfsd_dispatch: vers 4 proc 1
Nov 08 09:21:52 ol76a.fake.net kernel: nfsv4 compound op #1/4: 53 (OP_SEQUENCE)
Nov 08 09:21:52 ol76a.fake.net kernel: __find_in_sessionid_hashtbl: 1541685387:3955826926:2:0
Nov 08 09:21:52 ol76a.fake.net kernel: nfsd4_sequence: slotid 1
Nov 08 09:21:52 ol76a.fake.net kernel: check_slot_seqid enter. seqid 4 slot_seqid 3
Nov 08 09:21:52 ol76a.fake.net kernel: nfsv4 compound op ffff9691996a2080 opcnt 4 #1: 53: status 0
Nov 08 09:21:52 ol76a.fake.net kernel: nfsv4 compound op #2/4: 22 (OP_PUTFH)
Nov 08 09:21:52 ol76a.fake.net kernel: nfsd: fh_verify(40: 81070001 0613399f 00000000 322291b4 8046d8c2 fb09828f)
Nov 08 09:21:52 ol76a.fake.net kernel: nfsv4 compound op ffff9691996a2080 opcnt 4 #2: 22: status 0
Nov 08 09:21:52 ol76a.fake.net kernel: nfsv4 compound op #3/4: 9 (OP_GETATTR)
Nov 08 09:21:52 ol76a.fake.net kernel: nfsd: fh_verify(40: 81070001 0613399f 00000000 322291b4 8046d8c2 fb09828f)
Nov 08 09:21:52 ol76a.fake.net kernel: nfsv4 compound op ffff9691996a2080 opcnt 4 #3: 9: status 0
Nov 08 09:21:52 ol76a.fake.net kernel: nfsv4 compound op #4/4: 4 (OP_CLOSE)
Nov 08 09:21:52 ol76a.fake.net kernel: NFSD: nfsd4_close on file xxx
Nov 08 09:21:52 ol76a.fake.net kernel: NFSD: nfs4_preprocess_seqid_op: seqid=0 stateid = (5be4408b/ebc920ee/00000013/00000001)
Nov 08 09:21:52 ol76a.fake.net kernel: nfsv4 compound op ffff9691996a2080 opcnt 4 #4: 4: status 0
Nov 08 09:21:52 ol76a.fake.net kernel: nfsv4 compound returned 0
Nov 08 09:21:52 ol76a.fake.net kernel: --> nfsd4_store_cache_entry slot ffff969198433000
Nov 08 09:21:52 ol76a.fake.net kernel: renewing client (clientid 5be4408b/ebc920ee)
Nov 08 09:21:52 ol76a.fake.net kernel: nfsd_dispatch: vers 4 proc 1
Nov 08 09:21:52 ol76a.fake.net kernel: nfsv4 compound op #1/3: 53 (OP_SEQUENCE)
Nov 08 09:21:52 ol76a.fake.net kernel: __find_in_sessionid_hashtbl: 1541685387:3955826931:5:0
Nov 08 09:21:52 ol76a.fake.net kernel: nfsd4_sequence: slotid 0
Nov 08 09:21:52 ol76a.fake.net kernel: check_slot_seqid enter. seqid 26 slot_seqid 25
Nov 08 09:21:52 ol76a.fake.net kernel: nfsv4 compound op ffff9691996a2080 opcnt 3 #1: 53: status 0
Nov 08 09:21:52 ol76a.fake.net kernel: nfsv4 compound op #2/3: 22 (OP_PUTFH)
Nov 08 09:21:52 ol76a.fake.net kernel: nfsd: fh_verify(40: 81070001 0613399f 00000000 322291b4 8046d8c2 fb09828f)
Nov 08 09:21:52 ol76a.fake.net kernel: nfsv4 compound op ffff9691996a2080 opcnt 3 #2: 22: status 0
Nov 08 09:21:52 ol76a.fake.net kernel: nfsv4 compound op #3/3: 12 (OP_LOCK)
Nov 08 09:21:52 ol76a.fake.net kernel: NFSD: nfsd4_lock: start=0 length=-1
Nov 08 09:21:52 ol76a.fake.net kernel: nfsd: fh_verify(40: 81070001 0613399f 00000000 322291b4 8046d8c2 fb09828f)
Nov 08 09:21:52 ol76a.fake.net kernel: NFSD: nfs4_preprocess_seqid_op: seqid=0 stateid = (5be4408b/ebc920f3/00000001/00000001)
Nov 08 09:21:52 ol76a.fake.net kernel: nfsv4 compound op ffff9691996a2080 opcnt 3 #3: 12: status 0
Nov 08 09:21:52 ol76a.fake.net kernel: nfsv4 compound returned 0
Nov 08 09:21:52 ol76a.fake.net kernel: --> nfsd4_store_cache_entry slot ffff969181510000
Nov 08 09:21:52 ol76a.fake.net kernel: renewing client (clientid 5be4408b/ebc920f3)
Nov 08 09:21:52 ol76a.fake.net kernel: nfsd4_cb_done: minorversion=1
Nov 08 09:21:52 ol76a.fake.net kernel: nfsd4_cb_sequence_done: freed slot, new seqid=2
Nov 08 09:21:52 ol76a.fake.net kernel: nfsd_dispatch: vers 4 proc 1
Nov 08 09:21:52 ol76a.fake.net kernel: nfsv4 compound op #1/3: 53 (OP_SEQUENCE)
Nov 08 09:21:52 ol76a.fake.net kernel: __find_in_sessionid_hashtbl: 1541685387:3955826931:5:0
Nov 08 09:21:52 ol76a.fake.net kernel: nfsd4_sequence: slotid 0
Nov 08 09:21:52 ol76a.fake.net kernel: check_slot_seqid enter. seqid 27 slot_seqid 26
Nov 08 09:21:52 ol76a.fake.net kernel: nfsv4 compound op ffff9691996a4080 opcnt 3 #1: 53: status 0
Nov 08 09:21:52 ol76a.fake.net kernel: nfsv4 compound op #2/3: 22 (OP_PUTFH)
Nov 08 09:21:52 ol76a.fake.net kernel: nfsd: fh_verify(28: 00070001 0613399f 00000000 322291b4 8046d8c2 fb09828f)
Nov 08 09:21:52 ol76a.fake.net kernel: nfsv4 compound op ffff9691996a4080 opcnt 3 #2: 22: status 0
Nov 08 09:21:52 ol76a.fake.net kernel: nfsv4 compound op #3/3: 9 (OP_GETATTR)
Nov 08 09:21:52 ol76a.fake.net kernel: nfsd: fh_verify(28: 00070001 0613399f 00000000 322291b4 8046d8c2 fb09828f)
Nov 08 09:21:52 ol76a.fake.net kernel: nfsv4 compound op ffff9691996a4080 opcnt 3 #3: 9: status 0
Nov 08 09:21:52 ol76a.fake.net kernel: nfsv4 compound returned 0
Nov 08 09:21:52 ol76a.fake.net kernel: --> nfsd4_store_cache_entry slot ffff969181510000
Nov 08 09:21:52 ol76a.fake.net kernel: renewing client (clientid 5be4408b/ebc920f3)
Nov 08 09:21:52 ol76a.fake.net kernel: nfsd_dispatch: vers 4 proc 1
Nov 08 09:21:52 ol76a.fake.net kernel: nfsv4 compound op #1/3: 53 (OP_SEQUENCE)
Nov 08 09:21:52 ol76a.fake.net kernel: __find_in_sessionid_hashtbl: 1541685387:3955826931:5:0
Nov 08 09:21:52 ol76a.fake.net kernel: nfsd4_sequence: slotid 0
Nov 08 09:21:52 ol76a.fake.net kernel: check_slot_seqid enter. seqid 28 slot_seqid 27
Nov 08 09:21:52 ol76a.fake.net kernel: nfsv4 compound op ffff9691996a4080 opcnt 3 #1: 53: status 0
Nov 08 09:21:52 ol76a.fake.net kernel: nfsv4 compound op #2/3: 22 (OP_PUTFH)
Nov 08 09:21:52 ol76a.fake.net kernel: nfsd: fh_verify(40: 81070001 0613399f 00000000 322291b4 8046d8c2 fb09828f)
Nov 08 09:21:52 ol76a.fake.net kernel: nfsv4 compound op ffff9691996a4080 opcnt 3 #2: 22: status 0
Nov 08 09:21:52 ol76a.fake.net kernel: nfsv4 compound op #3/3: 9 (OP_GETATTR)
Nov 08 09:21:52 ol76a.fake.net kernel: nfsd: fh_verify(40: 81070001 0613399f 00000000 322291b4 8046d8c2 fb09828f)
Nov 08 09:21:52 ol76a.fake.net kernel: nfsv4 compound op ffff9691996a4080 opcnt 3 #3: 9: status 0
Nov 08 09:21:52 ol76a.fake.net kernel: nfsv4 compound returned 0
Nov 08 09:21:52 ol76a.fake.net kernel: --> nfsd4_store_cache_entry slot ffff969181510000
Nov 08 09:21:52 ol76a.fake.net kernel: renewing client (clientid 5be4408b/ebc920f3)
Nov 08 09:21:52 ol76a.fake.net kernel: nfsd_dispatch: vers 4 proc 1
Nov 08 09:21:52 ol76a.fake.net kernel: nfsv4 compound op #1/5: 53 (OP_SEQUENCE)
Nov 08 09:21:52 ol76a.fake.net kernel: __find_in_sessionid_hashtbl: 1541685387:3955826931:5:0
Nov 08 09:21:52 ol76a.fake.net kernel: nfsd4_sequence: slotid 0
Nov 08 09:21:52 ol76a.fake.net kernel: check_slot_seqid enter. seqid 29 slot_seqid 28
Nov 08 09:21:52 ol76a.fake.net kernel: nfsv4 compound op ffff9691996a4080 opcnt 5 #1: 53: status 0
Nov 08 09:21:52 ol76a.fake.net kernel: nfsv4 compound op #2/5: 22 (OP_PUTFH)
Nov 08 09:21:52 ol76a.fake.net kernel: nfsd: fh_verify(40: 81070001 0613399f 00000000 322291b4 8046d8c2 fb09828f)
Nov 08 09:21:52 ol76a.fake.net kernel: nfsv4 compound op ffff9691996a4080 opcnt 5 #2: 22: status 0
Nov 08 09:21:52 ol76a.fake.net kernel: nfsv4 compound op #3/5: 18 (OP_OPEN)
Nov 08 09:21:52 ol76a.fake.net kernel: NFSD: nfsd4_open filename  op_openowner           (null)
Nov 08 09:21:52 ol76a.fake.net kernel: nfsd: fh_verify(40: 81070001 0613399f 00000000 322291b4 8046d8c2 fb09828f)
Nov 08 09:21:52 ol76a.fake.net kernel: NFSD alloc_init_deleg
Nov 08 09:21:52 ol76a.fake.net kernel: nfsd4_process_open2: stateid=(5be4408b/ebc920f3/00000001/00000002)
Nov 08 09:21:52 ol76a.fake.net kernel: nfsv4 compound op ffff9691996a4080 opcnt 5 #3: 18: status 0
Nov 08 09:21:52 ol76a.fake.net kernel: nfsv4 compound op #4/5: 3 (OP_ACCESS)
Nov 08 09:21:52 ol76a.fake.net kernel: nfsd: fh_verify(40: 81070001 0613399f 00000000 322291b4 8046d8c2 fb09828f)
Nov 08 09:21:52 ol76a.fake.net kernel: nfsv4 compound op ffff9691996a4080 opcnt 5 #4: 3: status 0
Nov 08 09:21:52 ol76a.fake.net kernel: nfsv4 compound op #5/5: 9 (OP_GETATTR)
Nov 08 09:21:52 ol76a.fake.net kernel: nfsd: fh_verify(40: 81070001 0613399f 00000000 322291b4 8046d8c2 fb09828f)
Nov 08 09:21:52 ol76a.fake.net kernel: nfsv4 compound op ffff9691996a4080 opcnt 5 #5: 9: status 0
Nov 08 09:21:52 ol76a.fake.net kernel: nfsv4 compound returned 0
Nov 08 09:21:52 ol76a.fake.net kernel: --> nfsd4_store_cache_entry slot ffff969181510000
Nov 08 09:21:52 ol76a.fake.net kernel: renewing client (clientid 5be4408b/ebc920f3)
Nov 08 09:21:52 ol76a.fake.net kernel: nfsd_dispatch: vers 4 proc 1
Nov 08 09:21:52 ol76a.fake.net kernel: nfsv4 compound op #1/3: 53 (OP_SEQUENCE)
Nov 08 09:21:52 ol76a.fake.net kernel: __find_in_sessionid_hashtbl: 1541685387:3955826931:5:0
Nov 08 09:21:52 ol76a.fake.net kernel: nfsd4_sequence: slotid 0
Nov 08 09:21:52 ol76a.fake.net kernel: check_slot_seqid enter. seqid 30 slot_seqid 29
Nov 08 09:21:52 ol76a.fake.net kernel: nfsv4 compound op ffff9691996a4080 opcnt 3 #1: 53: status 0
Nov 08 09:21:52 ol76a.fake.net kernel: nfsv4 compound op #2/3: 22 (OP_PUTFH)
Nov 08 09:21:52 ol76a.fake.net kernel: nfsd: fh_verify(40: 81070001 0613399f 00000000 322291b4 8046d8c2 fb09828f)
Nov 08 09:21:52 ol76a.fake.net kernel: nfsv4 compound op ffff9691996a4080 opcnt 3 #2: 22: status 0
Nov 08 09:21:52 ol76a.fake.net kernel: nfsv4 compound op #3/3: 25 (OP_READ)
Nov 08 09:21:52 ol76a.fake.net kernel: nfsv4 compound op ffff9691996a4080 opcnt 3 #3: 25: status 0
Nov 08 09:21:52 ol76a.fake.net kernel: nfsv4 compound returned 0
Nov 08 09:21:52 ol76a.fake.net kernel: --> nfsd4_store_cache_entry slot ffff969181510000
Nov 08 09:21:52 ol76a.fake.net kernel: renewing client (clientid 5be4408b/ebc920f3)
Nov 08 09:21:52 ol76a.fake.net kernel: nfsd_dispatch: vers 4 proc 1
Nov 08 09:21:52 ol76a.fake.net kernel: nfsv4 compound op #1/3: 53 (OP_SEQUENCE)
Nov 08 09:21:52 ol76a.fake.net kernel: __find_in_sessionid_hashtbl: 1541685387:3955826931:5:0
Nov 08 09:21:52 ol76a.fake.net kernel: nfsd4_sequence: slotid 0
Nov 08 09:21:52 ol76a.fake.net kernel: check_slot_seqid enter. seqid 31 slot_seqid 30
Nov 08 09:21:52 ol76a.fake.net kernel: nfsv4 compound op ffff9691996a4080 opcnt 3 #1: 53: status 0
Nov 08 09:21:52 ol76a.fake.net kernel: nfsv4 compound op #2/3: 22 (OP_PUTFH)
Nov 08 09:21:52 ol76a.fake.net kernel: nfsd: fh_verify(40: 81070001 0613399f 00000000 322291b4 8046d8c2 fb09828f)
Nov 08 09:21:52 ol76a.fake.net kernel: nfsv4 compound op ffff9691996a4080 opcnt 3 #2: 22: status 0
Nov 08 09:21:52 ol76a.fake.net kernel: nfsv4 compound op #3/3: 14 (OP_LOCKU)
Nov 08 09:21:52 ol76a.fake.net kernel: NFSD: nfsd4_locku: start=0 length=-1
Nov 08 09:21:52 ol76a.fake.net kernel: NFSD: nfs4_preprocess_seqid_op: seqid=0 stateid = (5be4408b/ebc920f3/00000004/00000001)
Nov 08 09:21:52 ol76a.fake.net kernel: nfsv4 compound op ffff9691996a4080 opcnt 3 #3: 14: status 0
Nov 08 09:21:52 ol76a.fake.net kernel: nfsv4 compound returned 0
Nov 08 09:21:52 ol76a.fake.net kernel: --> nfsd4_store_cache_entry slot ffff969181510000
Nov 08 09:21:52 ol76a.fake.net kernel: renewing client (clientid 5be4408b/ebc920f3)
Nov 08 09:21:52 ol76a.fake.net kernel: nfsd_dispatch: vers 4 proc 1
Nov 08 09:21:52 ol76a.fake.net kernel: nfsv4 compound op #1/2: 53 (OP_SEQUENCE)
Nov 08 09:21:52 ol76a.fake.net kernel: __find_in_sessionid_hashtbl: 1541685387:3955826931:5:0
Nov 08 09:21:52 ol76a.fake.net kernel: nfsd4_sequence: slotid 0
Nov 08 09:21:52 ol76a.fake.net kernel: check_slot_seqid enter. seqid 32 slot_seqid 31
Nov 08 09:21:52 ol76a.fake.net kernel: nfsv4 compound op ffff9691996a4080 opcnt 2 #1: 53: status 0
Nov 08 09:21:52 ol76a.fake.net kernel: nfsv4 compound op #2/2: 45 (OP_FREE_STATEID)
Nov 08 09:21:52 ol76a.fake.net kernel: nfsv4 compound op ffff9691996a4080 opcnt 2 #2: 45: status 0
Nov 08 09:21:52 ol76a.fake.net kernel: nfsv4 compound returned 0
Nov 08 09:21:52 ol76a.fake.net kernel: --> nfsd4_store_cache_entry slot ffff969181510000
Nov 08 09:21:52 ol76a.fake.net kernel: renewing client (clientid 5be4408b/ebc920f3)
Nov 08 09:21:52 ol76a.fake.net kernel: nfsd_dispatch: vers 4 proc 1
Nov 08 09:21:52 ol76a.fake.net kernel: nfsv4 compound op #1/4: 53 (OP_SEQUENCE)
Nov 08 09:21:52 ol76a.fake.net kernel: __find_in_sessionid_hashtbl: 1541685387:3955826931:5:0
Nov 08 09:21:52 ol76a.fake.net kernel: nfsd4_sequence: slotid 1
Nov 08 09:21:52 ol76a.fake.net kernel: check_slot_seqid enter. seqid 1 slot_seqid 0
Nov 08 09:21:52 ol76a.fake.net kernel: nfsv4 compound op ffff9691996a2080 opcnt 4 #1: 53: status 0
Nov 08 09:21:52 ol76a.fake.net kernel: nfsv4 compound op #2/4: 22 (OP_PUTFH)
Nov 08 09:21:52 ol76a.fake.net kernel: nfsd: fh_verify(40: 81070001 0613399f 00000000 322291b4 8046d8c2 fb09828f)
Nov 08 09:21:52 ol76a.fake.net kernel: nfsv4 compound op ffff9691996a2080 opcnt 4 #2: 22: status 0
Nov 08 09:21:52 ol76a.fake.net kernel: nfsv4 compound op #3/4: 9 (OP_GETATTR)
Nov 08 09:21:52 ol76a.fake.net kernel: nfsd: fh_verify(40: 81070001 0613399f 00000000 322291b4 8046d8c2 fb09828f)
Nov 08 09:21:52 ol76a.fake.net kernel: nfsv4 compound op ffff9691996a2080 opcnt 4 #3: 9: status 0
Nov 08 09:21:52 ol76a.fake.net kernel: nfsv4 compound op #4/4: 4 (OP_CLOSE)
Nov 08 09:21:52 ol76a.fake.net kernel: NFSD: nfsd4_close on file xxx
Nov 08 09:21:52 ol76a.fake.net kernel: NFSD: nfs4_preprocess_seqid_op: seqid=0 stateid = (5be4408b/ebc920f3/00000001/00000002)
Nov 08 09:21:52 ol76a.fake.net kernel: nfsv4 compound op ffff9691996a2080 opcnt 4 #4: 4: status 0
Nov 08 09:21:52 ol76a.fake.net kernel: nfsv4 compound returned 0
Nov 08 09:21:52 ol76a.fake.net kernel: --> nfsd4_store_cache_entry slot ffff969181513000
Nov 08 09:21:52 ol76a.fake.net kernel: renewing client (clientid 5be4408b/ebc920f3)



